वृक्षांचे जिओ टॅगिंग -  काळाची गरज (भाग १)
-- मिलिंद ओक, प्रा. तय्यबअली सय्यद.
पर्यावरण हा आता परवलीचा शब्द झाला आहे. विज्ञान आणि तंत्रज्ञानाचा बेसुमार वापर मुख्यत्वेकरून चंगळवाद, युध्दखोरी आणि वर्चस्व गाजवण्यासाठी होत असल्यामुळे पर्यावरण आणि जैवविविधता यांचा वेगाने ऱ्हास होत आहे. पण विज्ञान आणि तंत्रज्ञान योग्यप्रकारे आणि अगदी कमी प्रमाणात फक्त शाश्वत विकासासाठीच वापरले तर ते पर्यावरणाला अधिक समृध्द करू शकेल. आज आंतरजालावरील वेगवेगळ्या वेबसाईट, माहितीपूर्ण चित्रफिती यातून पर्यावरण विषयक जागृती केली जात आहे. याचा पर्यावरण संवर्धनास मोठा लाभ मिळत आहे. पुढेही तो मिळत राहील यात शंकाच नाही.
माहिती तंत्रज्ञानाच्या आधारे अनेक पर्यावरणप्रेमी व कार्यकर्ते आज आंतरजालावर वेगवेगळ्या ग्रुपच्या व स्वयंसेवी संस्थांच्या माध्यमातून जोडले गेले आहेत. पर्यावरण विषयातील मुल्यवान माहिती आणि अनुभवाचे आदान प्रदान करत आहेत. या सर्व संस्था, ग्रुप आणि कार्यकर्ते यांना जर एकाच व्यासपीठावर आणले तर पर्यावरण संवर्धनाचे काम अधिक चांगल्या प्रकारे करता येईल. वृक्षांच्या जिओ टॅगिंगमुळे हा उद्देश काही प्रमाणात तरी साध्य होऊ शकेल असा आम्हाला विश्वास वाटतो.  
वृक्षांचे जिओ टॅगिंग म्हणजे काय :
वृक्षांचे जिओ टॅगिंग म्हणजे प्रत्येक वृक्षाला एक भौगोलिक पत्ता देणे व जगाच्या नकाशावर त्याचे स्थान निश्चित करणे. प्रत्येक वृक्षाची त्याच्या पत्त्यासकट वैश्विक नोंदणी करणे. वृक्षांची नोंदणी, मोजणी, ओळख आणि वर्गीकरण एकत्रितरित्या आणि वेगाने करण्याची ही एक अत्याधुनिक पध्दत आहे. 
जनगणना करतात तशी वृक्षांची मोजणी करायची हे अनेकांना हास्यास्पद वाटेल पण हे करणे नितांत आवश्यक आहे. समजा एखादा उद्योगधंदा वा व्यवसाय तुम्ही सुरू केलात आणि त्याचे अकाउंट्स किंवा हिशेब ठेवले नाहीत तर काय होईल ? जो पर्यंत तुमचा व्यवसाय अगदी छोटा असेल तोपर्यंत कदाचित हे चालू शकेल. पण जर व्यवसाय झपाट्याने वाढू लागला तर थोड्याच दिवसांनी तुमच्या कामकाजात गोंधळ उडायला सुरवात होईल. तुम्ही किती उत्पादने विकली, किती शिल्लक राहिली याचा हिशोब राहणार नाही. कुठली उत्पादने जास्त निर्माण करावी, ती किती काळ विकावी, कीती जास्त किंवा कमी विकावी याचा योग्य निर्णय घेता येणार नाही. तुम्हाला किती पैसे मिळाले, तुम्ही किती खर्च केलेत तेही तुम्हाला आठवणार नाही. कोणाकडून किती येणे आहे हे तुमच्या लक्षात राहणार नाही. देणेकरी याचा फायदा नक्कीच घेतील. काही काळाने तुम्हाला फायदा होतो आहे की नुकसान हेच सांगता येणार नाही. आपला व्यवसाय उत्तम चालला आहे या भ्रमात तुम्ही रहाल आणि कालांतराने आपले कर्ज आपल्या फायद्यापेक्षा प्रचंड जास्त आहे याचा तुम्हाला धक्का बसेल. थोडक्यात तुमचा व्यवसाय बुडण्याचीच दाट शक्यता आहे.
वृक्षारोपण हा काही व्यवसाय नाही तर सामाजिक जबाबदारी आहे. मात्र वरील सर्व बाबी वृक्षारोपणालाही तंतोतंत लागू पडतात. कोणत्याही परिसरात, राज्यात वा देशात एकूण किती वृक्ष आहेत, कोणत्या प्रकारचे वृक्ष आहेत, कोणत्या प्रकारचे नाहीत हे समजणे फार गरजेचे आहे. ही माहिती मिळाली तर कोणत्या प्रकारच्या वृक्षांची लागवड आज कोणत्या ठिकाणी करणे अपेक्षित आहे हे तज्ञ सांगू शकतील. पण वरील माहिती मिळाली नाही तर तज्ञांचाही सल्ला चुकू शकेल. परिणामी पर्यावरणाचेच नुकसान होईल म्हणून लवकरात लवकर वृक्षगणना करून वृक्षांचा रीतसर हिशेब करणे आणि तो अद्ययावत ठेवणे पर्यावरण संवर्धनासाठी फार आवश्यक आहे. जिओ टॅगिंगचे इतरही असंख्य फायदे आहेत. विस्तारभयापोटी ते सर्व येथे देता येणार नाहीत. पण पुढील काही पोस्टमधे आपण त्याबद्दल माहिती घेणार आहोत.  
हिशेब न ठेवता व्यवसाय उद्योगधंदा करणे जसे योग्य नाही त्याच प्रमाणे वृक्षांचा कोणताही हिशेब न ठेवता केवळ वृक्षारोपण करणेही योग्य नाही. वृक्षारोपण तर केलेच पाहिजे पण त्याचबरोबर त्यांचे जिओ टॅगिंग सुध्दा केले तर ते जास्त परिणामकारक ठरेल. वृक्षारोपण आणि जिओ टॅगिंग दोन्ही गोष्टी हातात हात घालूनच गेल्या पाहिजेत.  
गेल्या काही वर्षांपासून  हजार, लाख आणि कोटी वृक्ष लावल्याचे दावे केले जात आहेत. पर्यावरणतज्ञांच्या मते यातील बहुसंख्य वृक्ष जगत नाहीत त्यामुळे प्रत्यक्षात आवश्यकतेपेक्षा खूपच कमी लागवड होते. नुसते वृक्षारोपण करणे वेगळे आणि त्या वृक्षांची कमीत कमी दोन ते तीन वर्षे काळजी घेऊन ते जगवणे वेगळे. या दोन्ही गोष्टीत जमीन अस्मानाचा फरक आहे. हा फरक नीट लक्षात घेतला तर तज्ञांचे हे मत योग्य असावे हे सामान्य माणसाच्याही लक्षात येईल. आपल्याकडे अचूक आकडे नसल्यामुळे सध्या अस्तित्वात असलेल्या वृक्षांच्या निश्चित संख्येबाबत व प्रकाराबाबत आपण अनभिज्ञ आहोत. ही नक्कीच काळजी करण्यासारखी गोष्ट आहे. आज होणारी वृक्षतोड ही कदाचित वृक्षारोपणातून जगलेल्या वृक्षांच्या संख्येपेक्षा खुप अधिक होत असेल तर कालांतराने वृक्षांची संख्या मोठ्या प्रमाणात कमी झाल्याचे लक्षात येईल. पण तोपर्यंत वेळ निघून गेलेली असेल. हे जर टाळायचे असेल तर वृक्षारोपण मोठ्यासंख्येने करतानाच त्याला जिओ टॅगिंगची जोडही दिली पाहिजे. शिवाय पुर्वीपासून अस्तित्वात असलेल्या वृक्षांचे जिओ टॅगिंग झालेले नाही ते सुध्दा करणे बाकी आहे. ज्यांना  वयामुळे, वा इतर काही कारणाने, इच्छा असुनही वृक्षारोपण करणे शक्य होत नाही ते जिओ टॅगिंग करून पर्यावरण संवर्धनाला अप्रत्यक्षरित्या हातभार लावू शकतात. काही विधायक काम केल्याचे समाधान त्यांना निश्चित मिळेल.
जिओ टॅगिंग महत्वाचे असल्यामुळे स्थानिक स्वराज्य संस्था जनतेच्या करामधून कोट्यावधी रुपये खर्च करून वृक्षांच्या जिओ टॅगिंगचे प्रकल्प राबवत असतात. यामधे पर्यावरणापेक्षा ठेकेदारांचे आर्थिक गणित महत्वाचे असल्यामुळे असे प्रकल्प धडपणे राबवले जात नाहीत. अनेक वेळेला निधी अभावी ते रखडतात वा बंद पडतात. जनतेच्या पैशाची उधळपट्टी तर होतेच पण पर्यावरण संवर्धनालाही त्याचा काहीच फायदा होत नाही. 
यावर उपाय काय ?
जिओ टॅगिंग करणे अतिशय सोपे आहे. त्याला कोणताही खर्च येत नाही. फक्त स्मार्ट फोनवरून कोणालाही ते करता येते. जिओ टॅगिंग करायला कोणतेही श्रम पडत नाहीत उलट वृक्षारोपणासारखेच या कामाचेही समाधान मिळते. ते रिमोटली किंवा ऑनलाईन शिकता-शिकवता येते. म्हणुनच लोकसहभागातून म्हणजे आपण सर्वांनी मिळुन, परस्परांच्या सहकार्याने, वृक्षांचे जिओ टॅगिंग करणे आणि हा परिपुर्ण डेटा मुक्त स्वरूपात आंतरजालावर सर्वांसाठी उपलब्ध करणे हा एकच मार्ग योग्य असल्याच्या निर्णयाप्रत आम्ही आलो आहोत. त्यामुळे वृक्षारोपणाला निश्चित व योग्य दिशा तर मिळेलच शिवाय निकृष्ट दर्जाच्या सरकारी जिओ टॅगिंग प्रकल्पांवर चाप बसेल. या प्रकल्पात महाराष्ट्रातील वृक्षांचा परिपूर्ण आणि समृध्द असा नकाशा बनवुन तो सर्वांना मुक्तपणे उपलब्ध करून देण्याचा मानस आहे. 
सुरवात कशी करायची ? 
जिओ टॅगिंगमधे आम्ही तज्ञ आहोत असा आमचा आजिबात दावा नाही. उलट धडपड करत आम्ही जिओ टॅगिंग शिकत आहोत व जसे जमेल तसे सर्वांना शिकवण्याचा प्रयत्न करत आहोत. सर्व पर्यावरण संस्था, पर्यावरण ग्रुप व कार्यकर्ते यांना जिओ टॅगिंगच्या अनोख्या माध्यमाद्वारे जोडण्यासाठी आम्ही प्रयत्नशील आहोत. वृक्षारोपण हे जसे एकट्या दुकट्याचे काम नाही तर ती एक सामुहिक जबाबदारी आहे, त्याचप्रमाणे वृक्षांचे जिओ टॅगिंग हे सर्वांनी मिळुनच करायचे आहे. हा नवा उपक्रम सर्वांच्या सक्रिय सहभागाने सुरू करण्याचा आमचा मानस आहे. मोठ्या प्रमाणात वृक्षारोपण करणाऱ्या संस्था, समुह यांना जिओ टॅगिंग अतिशय उपयुक्त ठरू शकेल. त्यांनी या उपक्रमात जरूर सहभाग घ्यावा.
आवाहन :
सुरवातीला दहा ते पंधरा जणांची एक समिती (कोअर टीम) स्थापन केली व पर्यावरण तज्ञांचे मार्गदर्शन घेऊन रोडमॅप तयार केला तर हे काम प्रभावी व चांगल्या दर्जाचे होईल. यातील प्रत्येक सभासदाने हे कौशल्य स्वत: शिकुन इतरांना शिकवणे अपेक्षित आहे. पर्यावरण तज्ञ, वनस्पतीतज्ञ, शिक्षक-प्राध्यापक, ब्लॉग लेखक, माहिती तंत्रज्ञान क्षेत्रातील तज्ञ, भ्रमंती करणारे सायकलस्वार, ट्रेकर्स,दुर्गम ठिकाणी जाणारे गिर्यारोहक यांनी या प्रकल्पाच्या कोअर टीम मधे सक्रिय सहभाग घेण्याची नम्र विनंती आम्ही करत आहोत. नंतर कोअर टीम द्वारे सर्वांनाच हे कौशल्य शिकायचे आहे व स्वत:ची वेगळी टीम बनवुन हे जिओ टॅगिंगचे हे सहज साध्य कौशल्य जास्तीत जास्त लोकांपर्यंत पोचवायचे आहे.
समितीचे काम दूरस्थ पध्दतीने चालेल. त्यामुळे महाराष्ट्राच्या (किंवा देशाच्या अथवा जगाच्या) कोणत्याही भागात तुम्ही रहात असलात तरी चालेल. मात्र या कामासाठी पुरेसा वेळ देणे फार आवश्यक आहे. तसेच नवे कौशल्य शिकण्याची, समजून घेण्याची व शिकवण्याची तयारी हवी. जवळ राहणारे सदस्य प्रत्यक्ष भेटून ग्रुपने सुध्दा काम करु शकतात.  
हा पहिला ब्लॉग म्हणजे आपल्या प्रत्येकासाठी एक नाविन्यपुर्ण प्रकल्पची सुरवात आहे असे म्हंटल्यास ते वावगे ठरणार नाही. यापुढील ब्लॉग-पोस्ट हे या उपक्रमात सामिल होणाऱ्या तज्ञांच्या समितीद्वारे प्रकाशित करण्याचा विचार आहे. हे  ब्लॉग म्हणजे ट्युटोरिअल, काैशल्य विकास, सोशल मिशन यांचे एकत्रित रुप असतील. आपल्या सगळ्यांना ते मार्गदर्शक ठरतील अशी आशा आहे. 
महत्वाच्या टीप : 
१. आम्ही दोघे शिक्षण क्षेत्रात कार्यरत आहोत. हा प्रकल्प सुरू करण्यात आमचा कोणताही व्यावसायिक हेतू नाही. जिओ टॅगिंगसाठी वापरावयाची ॲप्स व प्रणाली या जागतिक दर्जाच्या आहेत. सर्वांना सहज उपलब्ध आहेत. या प्रणाली विनामुल्यच नव्हे तर लोकाभिमुख आणि मुक्त आहेत.  
२. या प्रकल्पात जो जगाचा मॅप वापरला जातो तो गुगल मॅप नाही तर पब्लिक मॅप आहे. त्यावर कोणत्याही कंपनीची किंवा संस्थेची मक्तेदारी नाही.
जिओ टॅगिंग संबंधात काही नेहमी विचारले जाणारे प्रश्न :
जिओ टॅगिंग करणे कठिण आहे का ?
मुळीच नाही. व्हॉट्सॲप किंवा फेसबुकवर जितक्या सहजपणे तुम्ही मेसेज टाकता तितक्याच सहजपणे तुम्ही तुमच्या आसपासच्या वृक्षांचे टॅगिंग करू शकता.  
जिओ टॅगिंग करण्यासाठी कोणती साधने वापरावी लागतात ?
जिओ टॅगिंग करण्यासाठी फक्त स्मार्ट फोन (मोबाईल फोन) पुरेसा आहे. प्रत्येक स्मार्ट फोनमधे जिपिेएस चिप असते. वृक्षाच्या जवळ जाऊन त्या वृक्षाच्या नावाचा टॅग टाकायचा. संगणक आवश्यक नाही पण संगणकाचा स्क्रिन मोठा असल्यामुळे त्यावर शिकणे किंवा शिकवणे थोडे सोपे जाते. 
जिओ टॅगिंग करताना चुक झाली तर  ?
जिओ टॅगिंग करताना चुक झाली तर ती तम्हाला सहज दुरुस्त करता येते. तसेच दुसरा टॅगरसुद्धा ती दुरूस्त करू शकतो. 
चुक दुरुस्त करण्यासाठी संगणक सोईचा पडतो, ग्रुपमधे एखाद्याकडे संगणक असेल तर उत्तम. नाहीतर जगभरातील कोणीतरी कालांतराने ती चुक दुरूस्त करतोच.
जिओ टॅगिंग करण्यासाठी इंटरनेटची गरज असते का ?
मोबाईलची जिपिएस सिस्टिम थेट सॅटेलाईट सिग्नलवर चालते. त्यामुळे जिओ टॅगिंग करण्यासाठी इंटरनेटची गरज लागत नाही. दुर्गम भागात, जिथे मोबाईल नेटवर्क पोहचू शकत नाही तिथे सुध्दा मोबाईलद्वारे जिओ टॅगिंग सहजपणे करता येते.  हे टॅग अपलोड करायला (म्हणजेच जगाच्या नकाशावर टाकायला) इंटरनेट लागते. जर नेटवर्क असेल तर लगेच अपलोड करू शकता. नसेल तर सर्व टॅग मोबाईलमधे सुरक्षित रहातात. जेव्हा कधी नेटवर्क मिळेल तेव्हा सर्व टॅग एकदम अपलोड करू शकता.
प्रत्येकाने किती वृक्षांचे टॅगिंग करावे ?
प्रत्येकाने कीती झाडे लावावीत या प्रश्नाचे उत्तर तुम्ही काय द्याल ? कर्तव्य म्हणुन कमीत कमीत एक दोन झाडे तरी तुम्ही लावली पाहिजेत पण जास्तीत जास्त कितीही लावू शकता. तसेच या प्रश्नाचे उत्तर आहे. कर्तव्य म्हणुन कमीत कमीत एक दोन वृक्षांचे टॅग तुम्ही करायला हवे पण जास्तीत जास्त कितीही करू शकता. तुमच्या जिओ टॅगिंगच्या अकाउंटवर तुम्ही टॅग केलेल्या वृक्षांचा रेकॉर्ड ठेवला जातो. हा अकाउंट विनामुल्य उघडता येतो.
छोट्या वनस्पती, झुडपांचे जिओ टॅगिंग करता येते का ?
होय. झाडे, झुडपे, छोट्या वनस्पती, माळराने, कुरणे, गवताळ प्रदेश, मोकळे डोंगर, पाणथळ जागा, नद्या, नाले, सरोवर ह्या सर्वांचे जिओ टॅगिंग करता येते. पृथ्वीवरील सर्व स्थिर वस्तुंचे जिओ टॅगिंग करता येते. हा खुप मोठा विषय आहे. यासाठी पर्यावरणतज्ञ एकत्र येऊन सर्वांना मार्गदर्शन करतील अशी आशा करूया आणि फक्त वृक्षांच्या जिओ टॅगिंगने छोटी सुरवात करुया.    
संपर्कासाठी ईमेल :  
मिलिंद ओक  oak444@gmail.com,   तय्यबअली सय्यद  tayyabsayyad@gmail.com    
जोडणी :  मोबाईल वापरून वृक्षांचे जिओ टॅगिंग करणे खरोखरच सोपे आहे हे दाखवणारी चित्रफित.


वृक्षांचे जिओ टॅगिंग - काळाची गरज (भाग २)
    --- मिलिंद ओक, प्रा. तय्यबअली सय्यद
प्रत्येक वृक्ष सांगत आहे स्वत:ची ओळख !
जिओ टॅगिंगचे अनेक उपयोग असले तरी आपल्या सर्वांनाच आवडणारा एक उपयोग आहे. तो असा की वृक्षाची ओळख निश्चित करण्यासाठी (Plant Identification) जिओ टॅगिंग सहज वापरता येते. वृक्षाची ओळख हा आपल्या सर्वांच्याच कुतूहलाचा विषय आहे. शहरी भागातील सर्वसामान्य व्यक्तीला वृक्षांची ओळख सांगणे वाटते तितके सोपे नाही. वृक्षांच्या नावाबद्दल आपल्याला कुतुहल असते, एखाद्या वृक्षाबद्दल अधिक माहिती आपल्याला हवी असते. आंतरजालावर तर हजारो वृक्षांची माहिती अगदी एका क्लिकवर उपलब्ध असते. पण प्रश्न असा असतो की आपण पाहिलेल्या वृक्षाचे तर नावच माहित नसते. नाव कळले नाही तर या प्रचंड माहितीचा काय बरं उपयोग ?  आंतरजालावरील वृक्षांचे हजारो फोटो (Images) पाहुन आपण पाहिलेल्या वृक्षाशी पडताळुन पहाणे फार कठीण असते. त्यात वेळ भरपुर वाया जातो व यश मिळण्याची शक्यताही कमी असते. गुगल लेन्स किंवा वृक्ष ओळखीची ॲप, गुगल इमेज सर्च ह्याचाही उपयोग होतो पण यामधे अगदी क्वचितच यश मिळते. अर्थातच हा काही भरवशाचा उपाय नाही.  आपण सर्वांनी या अडचणींचा सामना केलाच असेल.
वृक्षाचे नाव शोधण्याचा आणखी एक चांगला पर्याय म्हणजे खुद्द आपला हा ग्रुप किंवा याचसारखे इतर पर्यावरण संबंधी ग्रुप. ग्रुपवर वृक्षाचा फोटो टाकायचा आणि ग्रुपवरील तज्ञांना नाव सांगण्याची नम्र विनंती करायची. वृक्षतज्ञ या बाबतीत नेहमीच मदत करतात. पण होते असे की नवे सभासद ग्रुपवर येतात त्यांना जुन्या मेसेजेस बद्दल माहिती नसते. मग त्याच त्याच वृक्षाचे फोटो ग्रुपवर टाकले जातात व नाव विचारले जाते. याचा थोडसा त्रास मग सगळ्यांनाच, विशेषत: वनस्पतीतज्ञ असलेल्या सभासदांना, होतो. पण नवख्या सभासदांना नाऊमेद न करता वनस्पतीतज्ञ न कंटाळता, प्रेमाने नेहमीच मदत करत असतात. त्यांचे आपण सर्व खुप आभारी आहोत. काही वेळेस वृक्ष वा वनस्पतीची ओळख निश्चित करणे तज्ञांनाही अवघड जाते. विशेषत: फळे, फुले, पाने, खोड यांना काही विशेष गुणधर्म नसतील तर फोटोवरून किंवा प्रत्यक्ष वृक्ष पाहिला तरी ओळख पटणे थोडे कठीणच असते. 
अधुन मधुन पर्यावरण संस्था, शिक्षण संस्था, किंवा काही तज्ञ नेचर टूरचे आयोजन करतात. मग हाैसेने नेचर टूरमधे सहभाग घेतला जातो. चालता चालता टूर मधील तज्ञ झाडांची ओळख, गुणधर्म, सांगत जातात, ते लक्षात ठेवण्याचा प्रयत्न मनापासुन केला जातो. पण थोड्या वेळातच नावांमधे गोंधळ उडायला सुरवात होते. मग डायरी किंवा नोंदवही मधे ती नावे लिहिली जातात. नावांची यादी तर तयार होते पण नावे आणि वृक्ष यांची काही केल्या सांगड लागत नाही. वृक्ष आपल्या बरोबर घेऊन तर जाता येत नाही. मग ओळख म्हणून काही जण पाने, फुले, फळे, बिया यांचे नमुने नेतात. पण हे नमुने सुद्धा कालांतराने खराब होतात. शेवटी डायरी हरवून जाते किंवा त्याचा उपयोग नाही म्हणुन कंटाळुन रद्दीत टाकली जाते. पर्यावरण हा विषय इथेच संपून जातो. पुन्हा काही काळाने नेचर टूरची वारी येते आणि नवे सभासद डायरी घेऊन तयार होतात ! हा प्रातिनिधीक अनुभव विशेषत: शहरी भागातला आहे. अर्थात याला अपवादही आहेत. काहीजण न कंटाळता हा अभ्यास नेटाने सुरू ठेवतात. शिवाय वृक्षारोपण, संवर्धन, यातही प्रत्यक्ष सहभाग घेतात.  आपल्या ग्रुपमधे असे अनेक पट्टीचे वृक्षमित्र आहेत.
शहरात काही ठिकाणी महापालिका आणि स्थानिक संस्था वैशिष्ट्यपूर्ण झाडांच्या माहितीच्या पाट्या (हरितफलक) लावतात, उद्देश हा की लोकांना वृक्षांची अचुक ओळख लगेचच व तज्ञांच्या मदतीशिवाय व्हावी. वृक्षांचे गुणधर्म, उपयोग कळावे, वृक्षांचे महत्व पटावे, वृक्षांचे व पर्यायाने पर्यावरणाचे संवर्धन व्हावे. जैवविविधता टिकावी. परंतु या पाट्या कालांतराने नष्ट होऊन जातात. काही समाजकंटक त्या तोडून टाकतात, शिवाय अशा पाट्यांना खर्चही खूप असतो त्यामुळे त्या पुन्हा पुन्हा लावणे शक्य होत नाही. मग वृक्ष-ओळख हा कायम उत्सुकतेचा, कुतुहलाचा विषय राहतो आणि ते कुतुहल कधीही शमविले जात नाही.
आता मुळ विषयाकडे जाऊया. जिओ टॅगिंग हा या सर्वांवर रामबाण उपाय आहे. जिओ टॅगिंगमुळे वृक्ष ओळखीची पुनरावृती काही प्रमाणात तरी कमी करता येईल. जिओ टॅगिंग हे वृक्षांची ओळख निश्चित करण्यासाठी फक्त नवशिक्यांनाच नव्हे  तर तज्ञांनाही मदतीचा हात देईल. कसा ते पाहू.
सध्याच्या प्रगत तंत्रज्ञानाच्या युगात वृक्षफलकाची, वृक्ष ओळख आणि नोंदी असलेल्या डायरीची वा पुस्तकांची गरज आहे का ?  अगदी दुर्मिळ (Iconic) वृक्षांच्या मोजक्या पाट्या असायला हव्यात . काही मोजक्या तज्ञांची उत्तम पुस्तके सुद्धा जवळ असायला हवीत.  या पुस्तकांमधुन टॅक्सॉनॉमी मधील मूलतत्वे नीट शिकता येतील, आत्मसात करता येतील. पण पुढील अभ्यासासाठी विकिपिडीया हेच एक सर्वसमावेशक पुस्तक किंवा तुमची डायरी आहे. फक्त वृक्षाचे नाव किंवा शास्त्रिय नाव कळलं की ते विकिपिडीयात टाकायचं आणि मग तुम्हाला त्या वृक्षाची अगदी परिपूर्ण माहिती मिळते. 
पण त्या वृक्षाचं नावच माहित नसेल तर काय करायचे ?  आपल्या सर्वांची हीच तर मुख्य अडचण आहे नाही का ? 
यावर उपाय काय ?
अर्थात जिओ टॅग किंवा जिपिएस टॅग. वृक्षाचा जिओ टॅग बघायचा. कसा ? वृक्षापाशी उभे राहुन स्मार्ट फोन मधे तुमचं जिपिएस लोकेशन बघायचं. तिथे त्या लोकेशनवर तुम्हाला जिपिएस टॅग दिसेल. त्या जिपिएस टॅगवर वृक्षाचे स्थानिक नाव, शास्त्रिय नाव, इत्यादी संक्षिप्त माहिती दिसेल. मग काय विकिपिडीया आहेच की हाताशी.  एकदा नाव कळलं की विकिपिडीया व त्याबरोबरच इतर संकेत स्थळांवर सुध्दा त्या वृक्षाची भरपुर माहिती मिळते. 
जिओ टॅग (किंवा जिपिएस टॅग) म्हणजेच वृक्षाच्या नावाची अदृश्य पाटी आणि विकिपिडीया म्हणजे आपल्या सगळ्यांची सामायिक अशी वृक्षांच्या माहितीची समृध्द डायरी. वृक्षाची संक्षिप्त माहिती त्याच्या भाैगोलिक स्थानाशी (Geo-Location) जोडणे याला वृक्षाचे जिओ टॅगिंग करणे असे म्हणतात.
समजा एखाद्या वृक्षाला जिओ टॅगच नसेल तर टॅग कोणी द्यायचा ?
हाच तर लाखमोलाचा प्रश्न आहे. ही लेखमाला सूरु करण्याचे अगदी हेच प्रयोजन आहे. जिओ टॅगिंगचे प्रचंड काम बाकी आहे. भारतातील प्रत्येक राज्यात हजारो, लाखो वृक्षांचे जिओ टॅगिंग करायचे आहे. सुरवातीला निदान दुर्मीळ वृक्षांचे तरी जिओ टॅगिंग करायलाच हवे. मग ते कोणी करायचे ? उत्तर अगदी सोपे आहे. ज्या वृक्षाला जिपिएस टॅग नसेल त्याचा टॅग आपण स्वत:च टाकायचा. तुम्ही, आम्ही किंवा कोणीही ! त्या वृक्षाची ओळख माहित नसेल तर तज्ञांच्या मदतीने निश्चित करायची. हा ग्रुप आहेच आपल्या सर्वांच्या मदतीला. तुम्ही स्वत:च तज्ञ असाल तर तुम्हाला त्या वृक्षासंबधी माहिती असेलच, पण कदाचित नसली तरी तुम्ही इतर तज्ञांची मदत घ्यायची. या ग्रुपवर तर वृक्षांची ओळख विचारणाऱ्या पोस्ट अखंड सुरू असतात. पण ओळख पटल्यावर तुम्ही स्वस्थ का बसता ? अहो एकदा ओळख पटल्यावर जिओ टॅग टाकून तुमच्यानंतर त्या ठिकाणी येणाऱ्या अनेक वृक्षप्रेमींना तुम्ही मदत करणार नाही का ?  टॅगमधे नाव, शास्त्रिय नाव इ. संक्षिप्त  माहिती भरायची.  माहिती भरल्यावर तुमच्या मोबाईल वरून जिपिएस टॅग अपलोड करायचा. केवळ दोन ते पाच मिनिटात हे करता येते.
कोणत्याही वृक्षाला जिपिएस टॅग दिला की काय होते तर त्या वृक्षाचे नाव आणि संक्षिप्त माहिती जी तुम्हाला असते ती एका क्षणात संपुर्ण जगाला मिळते !  थोडक्यात तुम्ही तुमची स्वत:ची वृक्षनोंदीची वही संपु्र्ण जगासमोर खुली करता. आपल्यापैकी प्रत्येक जण हे नक्कीच करेल. कारण ज्ञानदान करणे ही आपली सहज प्रवृत्ती असते. तुम्हाला एखाद्या दुर्मिळ वृक्षाची माहिती असेल तर तुम्ही किती उत्साहाने ती दुसऱ्याला सांगता किंवा मग पोस्ट किंवा ब्लॉग द्वारे ती समाज माध्यमांवर टाकता. जिओ टॅगिंग हे असेच आहे. तुम्हाला माहित असलेल्या प्रत्येक वृक्षाची ओळख त्याच्या स्थानासकट नेटकेपणाने उपलब्ध करून द्यायची. पण फक्त फेसबुक मित्रांना किंवा ग्रुपवरील सभासादांनाच नाही बरं का तर अगदी संपुर्ण जगाला आणि त्याच्या अचुक स्थानासकट ! ती सुद्धा फक्त दोन मिनिटात ! ही नोंद कोणी केली ते सुध्दा या टॅगबरोबर नोंदवले जाते त्यामुळे जगभराच्या तज्ञांशी तुम्ही अगदी नकळत जोडले जाता.   
मोठ्या प्रमाणात जिओ टॅगिंग केलं तर केवढा प्रचंड फरक पडेल पाहा. तुम्ही मोबाईल घेऊन वृक्षाच्या जवळ उभे रहायचे. जिओ टॅगिंगचे ॲप सुरू करायचे. मग तो वृक्षच तुम्हाला त्याची ओळख सांगेल ! प्रत्येक वृक्षप्रेमी व्यक्तिला वृक्ष पाहताक्षणीच त्या वृक्षाची संपुर्ण माहिती उपलब्ध होईल. अतिशय अदभुत आणि आनंददायी अनुभव आहे हा. काय म्हणता विश्वास बसत नाही ?  मग या पोस्टला जोडलेली चित्रफित पहा. आपल्यापैकी प्रत्येकाने हा अनुभव जरूर घेतला पाहिजे.  
जिओ टॅगिंगमुळे आपल्याला हव्या त्या वृक्षाचा शोध आंतरजालावर घेऊन तो आपल्या परिसरात आहे का तेही बघता येईल. असेल तर तो नक्की कुठे आहे ते समजेल. आपल्या आसपास नसेल तर दुसऱ्या कोणत्या गावात, राज्यात आहे ते समजेल.  इतकेच काय तर संपुर्ण भारतात किंवा जगात कुठे आहे ते सुध्दा समजेल ! आणखी काय हवे ? 
मग तुम्ही पाहिलेल्या, ओळख पटलेल्या, तुमच्या आवडीच्या किंवा तुमच्या प्रवासात दिसलेल्या वैशिष्ठ्यपुर्ण वृक्षाची ओळख तुम्ही फक्त फेसबुकवरील मोजक्या मित्रांना वा ग्रुपवरील सभासदांना करुन देणार की जिओ टॅगिंग द्वारे संपुर्ण जगाला करून देणार ? उत्तर तुम्ही द्यायचे आहे.
मात्र तुम्ही हे टॅगिंगचे काम केले नाहीत म्हणुन तुम्हाला कोणीही दोष देणार नाही. जगभर हे काम सरूच रहाणार आहे. जे लोक मनापासुन वृक्षारोपण करतात ते बाकीचे करत नाहीत म्हणुन थांबुन कधी राहतात का ? ते निरपेक्षपणे वृक्षारोपण करतच रहातात. तसेच हे आहे. जिओ टॅगिंग सुरुच रहाणार आहे. आपण आपला खारीचा छोटा वाटा उचलायचा की नाही ते प्रत्येकाने ठरवायचे आहे. हे काम अगदी आरामात करायचे आहे. घाई नाही की गडबड नाही. तुमच्या एकट्यावर ही जबाबदारी आहे असं मुळीच समजू नका. थोड्याशा प्रयत्नाने जिओ टॅगिंग ही तुमच्याकडून अगदी सहज आणि नैसर्गिक कृती होईल. जाता जाता तुम्ही एखाद्या वृध्द व्यक्तीला रस्ता ओलांडायला मदत करता किंवा जाता जाता रस्त्यात पडलेला कागदाचा बोळा कचराकुंडीत टाकता, अगदी तितक्याच सहजपणे तुम्ही दिवसभरात एखादा टॅग सहज टाकू शकाल आणि पर्यावरणाच्या जागतिक क्षितिजावर आपला इवलासा ठसा उमटवू शकाल.  कारण एकदा दिलेला टॅग चिरकाल टिकणार आहे. अनेक वृक्षप्रेमींना त्याचा फायदा होत रहाणार आहे.  
जिओ टॅगिंग हा काही वृक्षारोपणाला पर्याय नव्हे. पण वृक्षारोपणाला आणि वृक्ष संवर्धनाला ते पुरक आहे हे निश्चित. तर वृक्षारोपण प्रथम करायचेच आणि ते जोमाने सुरूच ठेवायचे आहे. पण आपण लावलेल्या किंवा पाहिलेल्या वृक्षाची जाता-जाता नोंदणी करून जायचं.  ही नोंदणी करण्यासाठी जिओ टॅगिंगचे अगदी सोपे कौशल्य शिकून घ्यायचे व वापरायचे. ज्या व्यक्ती किंवा संस्था मोठ्या प्रमाणावर वृक्षारोपण करत आहेत त्यांना जिओ टॅगिंग खुपच लाभदायक ठरणार आहे पण त्याचबरोबर पर्यावरण क्षेत्रात काम करणाऱ्या जगभरातील सर्वच कार्यकर्त्यांना त्याचा लाभ मिळणार आहे.
गाव,खेड्यातील लोकांचे नाते थेट मातीशी जोडलेले असते. वृक्ष, झाडा-झुडपांचे अैाषधी उपयोग व इतर खुपच माैलिक माहिती त्यांना अगदी लहानपणापासुन असते. बहुतेक वृक्षांची  स्थानिक नावे त्यांना तोंडपाठ असतात. मात्र शास्त्रिय नावांची फारशी माहिती नसते.  त्यामुळे गाव, शहर आणि खेड्यातील सर्व वृक्षप्रेमींना, कार्यकर्त्यांना, पर्यावरण संस्थांना एकत्र जोडणारा दुवा तयार करणे पर्यावरणासाठी अत्यंत आवश्यक आहे. गाव-खेड्यातील लोकांना शहरातील पर्यावरणप्रेमींशी जोडण्याचे काम जिओ टॅगिंग अगदी प्रभावीपणे करू शकेल. म्हणून वृक्षांचे जिओ टॅगिंग पर्यावरणाचे संवर्धन करणाऱ्या आपण सर्वांनी जरूर केले पाहिजे.  
पुढील पोस्टमधे आम्ही प्रत्यक्ष जिओ टॅगिंग शिकवण्याचा प्रामाणिक प्रयत्न करणार आहोत. पोस्ट वाचून तुम्ही स्वत:च प्रयत्न करून शिकू शकाल. चला तर मंडळी तुमचा स्मार्ट फोन तयार ठेवा. आणि पुढील पोस्टची वाट पाहा. तोपर्यंत निरोप घेत आहोत. 
राम राम आणि खुदा हाफिज...
-----
[टीप : सध्या ठाणे (पुर्व) येथे जिओ टॅगिंगचे काम आमच्या अभ्यासगटामार्फत सुरू आहे. जे ठाणे (पुर्व) किंवा जवळपास रहातात ते या अभ्यासगटात सामील होऊन जिओ टॅगिंगचे प्रात्यक्षिक आमच्याबरोबर करून पाहू शकतात. ज्यांना स्वारस्य असेल त्यांनी कृपया 8652305696 (मिलिंद ओक) किंवा 8605134503 (तय्यब अली सय्यद) या क्रमांकावर व्हॉट्सअप मेसेज करावा. ]
0 comments

⁠






