                                                             वृक्षाच्या नावाची अदृश्य पाटी
                                      
         वृक्षारोपण करण्यासाठी वृक्षांची ओळख पटली पाहिजे. मग स्थानिक परिसंस्थेसाठी तो योग्य आहे की नाही हे ठरवता येते.  पण वृक्ष ओळखणे वाटते तितके सोपे नाही.  गुगल लेन्स सारख्या तंत्रज्ञानाचा उपयोग अगदी मर्यादित स्वरूपातच होतो.  प्रत्येक वेळी फोटो काढून पर्यावरण ग्रुपवर टाकणे वेळखाऊ असते. शिवाय अचूक उत्तर मिळतेच असे नाही. पण यावर एक चांगला आणि सृजनशील उपाय आहे.
            
           तुम्हाला आश्चर्य वाटेल पण प्रत्येक वृक्षावर एक अदृश्य पाटी लावता येते. ज्या वृक्षाला कोणीतरी अशी पाटी लावली आहे त्या वृक्षापाशी उभे राहुन स्मार्ट फोन मधे तुमचं लोकेशन बघायचं. तिथे त्या लोकेशनवर वृक्षाचे स्थानिक नाव, शास्त्रिय नाव, इत्यादी लिहिलेली पाटी दिसेल. हा विस्मयकारी अनुभव प्रत्येक वृक्षप्रेमीने जरूर घ्यायला हवा.
           
जर त्या वृक्षाला कोणी अशी पाटी लावलीच नसेल तर काय करायचं ? पाटी नसेल व झाड तुमच्या ओळखीचे असेल तर तुम्हीच अशी पाटी लावायची.  अगदी शाळकरी मुलांपासून ते पाऊणशे वयोमान असलेल्या जेष्ठ नागरिकांपर्यंत कोणीही हे काम स्मार्ट फोनद्वारे करू शकतो.  हे छोटे कौशल्य ज्याने आत्मसात केले आहे त्याच्या कडून केवळ दोन मिनिटात तुम्हाला शिकता येईल, स्वत: अभ्यास केला तर केवळ दोन-चार दिवसात. एकदा अशी पाटी लावली की त्याचा फायदा तो वृक्ष जिवंत असेल तोवर सर्वांना होत राहील.   
           
वरील तंत्रज्ञानाला वृक्षांचे जिओ टॅगिंग करणे असे म्हणतात. वृक्ष ओळख हा त्याचा केवळ एक उपयोग पण जिओ टॅगिंगचे असंख्य फायदे आहेत. वापरायला अगदी सोपे व पर्यावरण संवर्धनासाठी अत्यंत उपयुक्त असलेले हे तंत्रज्ञान अजुनही दुर्लक्षित आहे. याचा वापर योग्य तऱ्हेने करायला हवा. जिओ टॅगिंग हा वृक्षारोपणाला पर्याय नाही तर ते वृक्षारोपणाला पुरक आहे. वृक्षारोपण तर जोमाने केलेच पाहिजे पण जोडीला त्यांचे जिओ टॅगिंग सुध्दा केले पाहिजे. दोन्ही गोष्टी जर हातात हात घालुन गेल्या तरच पर्यावरण संवर्धनाला योग्य दिशा मिळू शकेल.
             
             
             संदर्भ : 1. Open Street Map - Wikipedia 
                              ( https://en.wikipedia.org/wiki/OpenStreetMap )
                              
                          2. Why would you use OpenStreetMap if there is Google Maps ? - Aleks Buczkowski
                              ( https://geoawesomeness.com/why-would-you-use-openstreetmap-if-there-is-google-maps/ )
                          
                          3. Why I am mapping trees - Frederik Ramm (Woodpeck)
                              ( https://www.openstreetmap.org/user/woodpeck/diary/393947)
