Shruti Arun Oza
SVS बीज बँक (बीया आणि बागकाम माहिती देवाण घेवाण स्थळ)
30 April 2020  ·
नमस्कार🙏😊
कोणतीही झाडे लावण्या अगोदर आपल्या मनात प्रश्न येतो की ,कोणते झाड कुठे लावावे जेणेकरून ते चांगल्या प्रकारे वाढेल आणि त्याचा आपल्याला चांगला उपयोग होईल तर ,
आज आपण पाहु....
🌼🌼##कोणती झाडे कोठे लावावी 🌼🌼
विविध पुस्तक, विविध पोस्ट वाचल्या नंन्तर जी माहिती मिळली होती, ती मी येथे देण्याचा प्रयत्न करतेय 😊 या यादी मध्ये काही बदल असेल तर नक्की कळवा🙏.
🌷घराजवळ लावण्यासारखी शुभ झाडे-
बेल, डाळिंब, नागकेसर, फणस, नारळ 
🌷🌷घराजवळ कोणत्या दिशेला कोणती झाडे लवावी-
पूर्व-अशोक, पारिजातक,बेल,उंबर
पश्चिम-गुलाब,कडुलिंब,आवळा,शमी
दक्षिण-बदाम,नारळ,बेल,आंबा,खैर
उत्तर-काजू,चाफा ,अर्जुन,पिंपळ
ईशान्य-आघाडा,
वायव्य-कुश
आग्नेय-पळस
नैऋत्य-दूर्वा🌷🌷
🌷रंग निर्मिती करणारी झाडे -
गुलाब,अंबाडी,पळस, मेहंदी ,रक्तचंदन, कांचन, आंबा ,काजू ,पारिजातक, बिक्सा, कुंकू फळ, बाभूळ ,शेवगा. 
🌷कमी उन्हात लावायची झाडे
 मनिप्लँट, क्रोटन,स्नेक प्लांट, ड्रेसीना, अ‍ॅग्लोनिमा, रंगीत अळू,
🌷लाख निर्मिती साठी उपयुक्त झाडे-
 उंबर ,पिंपळ ,वड, पळस, शिरीष ,बोर, कुसुम.
🌷चाऱ्यासाठी साठी उपयुक्त असे झाडे- 
जांभूळ ,वड, पिंपळ, बोर, आपटा ,कांचन, बाभूळ ,शिरीष, फणस , पांगरा ,बांबू ,तिवस, शिसम, शेवगा, करंजी ,हादगा.
🌷सुगंधी द्रव्य मिळणारी झाडे- 
गवती चहा, खस गवत, चंदन ,केवडा, जायफळ ,दालचिनी, (निलगिरी  विदेशी वृक्ष),लिंबू,गुलाब,पारिजातक,
निशिगंध,मोगरा,जाई, जुई , जिरेनियम,
🌷खेळणी तयार करण्यासाठी -
पांगरा ,सावर, आंबा ,जांभूळ, चंदन
🌷प्लायवूड तयार करण्यासाठी उपयुक्त झाडे-
कदंब ,सावर, शिरीष,  शिसम ,शिवण, मोह, जांभूळ ,सांग, बेहडा .
🌷जाळण्यासाठी लाकूड मिळणारी झाडे- बाभूळ ,बेहडा ,हिरडा, आवळा, पांगरा, जांभूळ, बोर, चिंच ,शिवण, करंज ,वेडी बाभूळ, 
🌷जमिनीची धूप रोखण्यासाठी-
 बाभूळ, वेडी बाभुळ, खेजरी, शिरीष ,बोर, रक्त रोहिडा,काजू.
🌷शेतीच्या बांधावर लावण्यासाठी झाडे- 
शेवगा, तुती ,विलायती चिंच, जांभूळ ,फणस, एरंडी, शेवरी,सागर गोटा
🌷सावली देणारी झाडे- 
शिरीष, कदंब ,कडुनिंब ,बहावा, भोकर,   शिवण, आंबा, बाभूळ, सीता अशोक ,पुत्रजीवा, बकुळ ,ताम्हण, अशोक,पिंपल,वड
🌷डास घरत येऊ नये म्हणून लावायची झाडे-
ओडोमास, तुळस ,ओवा, झेंडू, लॅव्हेंडर, पुदिना ,गवती चहा.
🌷काडेपेटी उद्योगा साठी आवश्यक झाडे-
आंबा, कदंब, अशोक
🌷बिडी उद्योगा साठी झाडे-
फणस ,पळस, केळी ,कुडा, उंबर, आपटा,
🌷रस्त्याच्या सुशोभीकरण करण्यासाठी लावायची झाडे-
कांचन ,बकुळ, सुरंगी, रक्त रोहिडा, बहावा, चिंच ,चाफा, पिचकारी ,सीता अशोक,पळस, उंबर,  पिंपळ, वड ,सावर ,ताम्हण, आंबा
🌷दोर अथवा तंतू निर्मिती साठी आवश्यक झाडे - पळस, आपटा, धामण ,केवडा,फणस, घायपात, पिंपळ ,पांढरी सावर ,रुई,
🌷अखाद्य तेल -
 चारोळी ,बेल, करंजी,कडुलिंब ,मोह ,कुसुम ,नागकेसर ,खिरणी, कोकम,शेवगा, बदाम, चंदन, रिठा.
🌷पेपर निर्मितीसाठी झाडे-
 पळस, शिसम, बेल ,तुती, मोह ,बाभुळ, जांभूळ, बांबू, 
🌷औषधी झाडे-
 माका, गोकर्णी, आघाडा, अक्कलकारा, शंखपुष्पी ,रिठा, गोखरू ,नाग केशर, काटे रिंगणी, शिवन ,अश्वगंधा, हिरडा ,वावडिंग, चित्रक,सोन मुखी, काळी मुसळी, आवळा, धोत्रा ,रानकांदा, वेखंड, कोरफड, सर्पगंधा ,सदाफुली ,गुळवेल, शतावरी,तुळस,सब्जा
🌷रस्त्याच्या दोन्ही बाजूंनी शहरी भागात लावून लागवडीसाठी योग्य झाडे -
रक्त रोहिडा, अर्जुन, साग ,बेहडा, हिरडा ,भेंड , गोरखचिंच, चिंच, रतन गुंज, हळद, रामफळ, कांचन, कडुलिंब ,सातवी,कदंब, शिरीष ,अंकुश ,सीताफळ, बाभूळ, आपटा ,पळस ,पांढरी सावर ,बहावा, भोकर , कैलासपती ,आवळा, आंबा, पिंपळ , उंबर , कोकम, शिवण, कुडा ,खिरणी ,चिकू,कवठ,अशोक ,कडीपत्ता, तुती ,चाफा ,शेवगा, अशोक, पुत्र जीवा,सीता अशोक जांभूळ ,चिंच ,  बेहडा ,हिरडा 
🌷टाकाऊ जमिनीसाठी झाडे-
बाभूळ ,आवळा, ताम्हण ,मोह, बोर ,करंज, अर्जुन,
🌷फुल झाडे-
 अबोली, गुलबक्षी, सदाफुली, बारमाही तेरडा, गोकर्ण,  तगर, अेक्झोरा, जास्वंद, झेंडू, मोगरा, जाई, कामिनी, कव्हेर, गुलाब, अनंत,चित्रक, चिनीगुलाब, ऑफिस टाईम , वेगवेगळे लिली ,सोनटक्का
🌷बारा महिने फुले येणारी फुलझाडे-
सदाफुली,तगर, जास्वंद ,गुलाब गलांडा,कन्हेर,गुलबक्षी
🌷जलद गतीने वाढणारी झाडे-
पांगारा, बूच,सावर, कदंब
🌷मंदिराच्या अवतिभोवती लावण्यासारखे झाडे-
 वड ,उंबर, पिंपळ, बेल, शमी, कदंब, कांचन, चाफा, कडुलिंब,
🌷फळझाडे-
 बोर ,आवळा, चिंच, खिरणी, विलायती चिंच, नारळ, चिकू, रामफळ, सिताफळ ,फणस, कवठ, पेरू आंबा ,चारोळी
🌷🌷ज्या झाडांमधून दूधासारखा द्रव पदार्थ निघतो, अशी झाडं  घरात लावू नये. कॅक्टस सुद्धा घराच्या आत लावल्यास त्यानं वास्तुदोष निर्माण होतो🌷🌷(मी मात्र लावते😉)
चला तर मग लागा कामाला तुम्ही काय काय लावणार ते पण कळवा ह!!
