वृक्षांचे जिओ टॅगिंग - काळाची गरज

-- मिलिंद ओक, प्रा. तय्यबअली सय्यद.
 

पर्यावरण हा आता परवलीचा शब्द झाला आहे. विज्ञान आणि तंत्रज्ञानाचा बेसुमार वापर मुख्यत्वेकरून चंगळवाद, युध्दखोरी आणि वर्चस्व गाजवण्यासाठी होत असल्यामुळे पर्यावरण आणि जैवविविधता यांचा वेगाने ऱ्हास होत आहे. पण विज्ञान आणि तंत्रज्ञान योग्यप्रकारे आणि अगदी कमी प्रमाणात फक्त शाश्वत विकासासाठीच वापरले तर ते पर्यावरणाला अधिक समृध्द करू शकेल.  आज आंतरजालावरील वेगवेगळ्या वेबसाईट, माहितीपूर्ण चित्रफिती यातून पर्यावरण विषयक जागृती केली जात आहे. याचा पर्यावरण संवर्धनास मोठा लाभ मिळत आहे. पुढेही तो मिळत राहील यात शंकाच नाही.

माहिती तंत्रज्ञानाच्या आधारे अनेक पर्यावरण प्रेमी व कार्यकर्ते आज आंतरजालावर वेगवेगळ्या ग्रुपच्या व स्वयंसेवी संस्थांच्या माध्यमातून जोडले गेले आहेत. पर्यावरण विषयातील मुल्यवान माहिती आणि अनुभवाचे आदान प्रदान करत आहेत. या सर्व संस्था, ग्रुप आणि कार्यकर्ते यांना जर एकाच व्यासपीठावर आणले तर पर्यावरण संवर्धनाचे काम अधिक चांगल्या प्रकारे करता येईल. वृक्षांच्या जिओ टॅगिंगमुळे हा उद्देश काही प्रमाणात तरी साध्य होऊ शकेल असा आम्हाला विश्वास वाटतो. 

वृक्षांचे जिओ टॅगिंग म्हणजे काय :

वृक्षांचे जिओ टॅगिंग म्हणजे प्रत्येक वृक्षाला एक भौगोलिक पत्ता देणे व जगाच्या नकाशावर त्याचे स्थान निश्चित करणे. एक प्रकारे वृक्षाची त्याच्या पत्त्यासकट वैश्विक नोंदणी करणे. वृक्षांची नोंदणी, मोजणी, ओळख आणि वर्गीकरण एकत्रितरित्या आणि वेगाने करण्याची ही एक अत्याधुनिक पध्दत आहे. जनगणना करतात तशी वृक्षांची मोजणी करायची हे अनेकांना हास्यास्पद वाटेल पण हे करणे नितांत आवश्यक आहे.

समजा एखादा उद्योगधंदा वा व्यवसाय तुम्ही सुरू केलात आणि त्याचे अकाउंट्स किंवा हिशेब ठेवले नाहीत तर काय होईल ? जो पर्यंत तुमचा व्यवसाय अगदी छोटा असेल तोपर्यंत कदाचित हे चालू शकेल. पण जर व्यवसाय झपाट्याने वाढू लागला तर थोड्याच दिवसांनी तुमच्या कामकाजात गोंधळ उडायला सुरवात होईल. तुम्ही किती उत्पादने विकली, किती शिल्लक राहिली याचा हिशोब राहणार नाही. कुठली उत्पादने जास्त निर्माण करावी, ती किती काळ विकावी, कीती जास्त किंवा कमी विकावी याचा योग्य निर्णय घेता येणार नाही. तुम्हाला किती पैसे मिळाले, तुम्ही किती खर्च केलेत तेही तुम्हाला आठवणार नाही.  कोणाकडून किती येणे आहे हे तुमच्या लक्षात राहणार नाही. देणेकरी याचा फायदा नक्कीच घेतील.  काही काळाने तुम्हाला फायदा होतो आहे की नुकसान हेच सांगता येणार नाही. आपला व्यवसाय उत्तम चालला आहे या भ्रमात तुम्ही रहाल आणि कालांतराने आपले कर्ज आपल्या फायद्यापेक्षा प्रंचंड जास्त आहे याचा धक्का तुम्हाला बसेल. थोडक्यात तुमचा व्यवसाय बुडण्याचीच दाट शक्यता आहे.

वृक्षारोपण हा काही व्यवसाय नाही तर सामाजिक जबाबदारी आहे. मात्र वरील सर्व बाबी वृक्षारोपणाला तंतोतंत लागू पडतात. कोणत्याही परिसरात, राज्यात वा देशात एकूण किती वृक्ष आहेत, कोणत्या प्रकारचे वृक्ष आहेत, कोणत्या प्रकारचे नाहीत हे समजणे फार गरजेचे आहे. ही माहिती मिळाली तर कोणत्या प्रकारच्या वृक्षांची लागवड आज कोणत्या स्थानी करणे अपेक्षित आहे हे तज्ञ सांगू शकतील. पण वरील माहिती मिळाली नाही तर तज्ञांचाही सल्ला चुकू शकेल. पर्यायाने पर्यावरणाचे नुकसान होईल म्हणून लवकरात लवकर वृक्षगणना करून वृक्षांचा रीतसर हिशेब करणे आणि तो अद्ययावत ठेवणे पर्यावरण संवर्धनासाठी फार आवश्यक आहे. जिओ टॅगिंगचे इतरही असंख्य फायदे आहेत. विस्तारभयापोटी ते सर्व येथे देता येणार नाहीत. पण पुढील पोस्टमधे आपण त्याबद्दल माहिती घेणार आहोत.  

हिशेब न ठेवता व्यवसाय उद्योगधंदा करणे जसे योग्य नाही त्याच प्रमाणे वृक्षांचा कोणताही हिशेब न ठेवता केवळ वृक्षारोपण करणेही योग्य नाही. वृक्षारोपण आणि जिओ टॅगिंग दोन्ही गोष्टी हातात हात घालूनच गेल्या पाहिजेत.  

गेल्या काही वर्षांपासून  हजार, लाख आणि कोटी वृक्ष लावण्याचे दावे केले जात आहेत. यातील बहुसंख्य वृक्ष जगत नाहीत त्यामुळे प्रत्यक्षात आवश्यकतेपेक्षा खूपच कमी लागवड झाली आहे असे पर्यावरण तज्ञांचे मत आहे. वृक्षारोपण करणे आणि त्या वृक्षांची सुमारे दोन ते तीन वर्षे काळजी घेऊन ते जगवणे यात जमीन अस्मानाचा फरक आहे. हा फरक लक्षात घेतला तर तज्ञांचे हे मत योग्य असावे हे सामान्य माणसाच्याही लक्षात येईल. आपल्याकडे अचूक आकडे नसल्यामुळे सध्या अस्तित्वात असलेल्या वृक्षांच्या निश्चित संख्येबाबत आपण अनभिज्ञ आहोत. ही काळजी करण्यासारखी गोष्ट आहे. आज होणारी वृक्षतोड ही कदाचित वृक्षारोपणातून जगलेल्या वृक्षांच्या संख्येपेक्षा खुप अधिक असेल तर कालांतराने वृक्षांची संख्या मोठ्या प्रमाणात कमी झाल्याचे लक्षात येईल. पण तोपर्यंत वेळ निघून गेलेली असेल. हे जर टाळायचे असेल तर वृक्षारोपण मोठ्यासंख्येने केलेच पाहिजे पण त्याला जिओ टॅगिंगची जोडही दिली पाहिजे.  

बहुतेकांना हे माहित नसेल पण स्थानिक स्वराज्य संस्था जनतेचे कोट्यावधी रुपये खर्च करून जिओ टॅगिंगचे प्रकल्प राबवत असतात. यामधे पर्यावरणापेक्षा ठकेदारांचे आर्थिक गणित महत्वाचे असल्यामुळे असे प्रकल्प धडपणे राबवले जात नाहीत. निधी अभवी ते रखडतात, जनतेच्या पैशाची उधळपट्टी तर होतेच पण पर्यावरण संवर्धनालाही त्याचा काहीच फायदा होत नाही. 

यावर उपाय काय ?

जिओ टॅगिंग करणे अतिशय सोपे आहे. त्याला कोणताही खर्च येत नाही. फक्त स्मार्ट फोनवरून कोणालाही ते करता येते. जिओ टॅगिंग करायला कोणतेही श्रम पडत नाहीत उलट वृक्षारोपणासारखेच या कामाचे समाधान मिळते. म्हणुनच लोकसहभागातून म्हणजे आपण सर्वजणांनी मिळुन जिओ टॅगिंग करणे आणि हा परिपुर्ण डेटा मुक्त स्वरूपात आंतरजालावर सर्वांसाठी उपलब्ध करणे हा एकच मार्ग योग्य असल्याच्या निर्णयाप्रत आम्ही आलो आहोत. त्यामुळे वृक्षारोपणाला निश्चित व योग्य दिशा तर मिळेलच शिवाय निकृष्ट दर्जाच्या सरकारी जिओ टॅगिंग प्रकल्पांवर अप्रत्यक्ष असा चाप बसेल. 

आवाहन :

जिओ टॅगिंगमधे आम्ही तज्ञ आहोत असा आमचा आजिबात दावा नाही. उलट धडपड करत आम्ही जिओ टॅगिंग शिकत आहोत व जसे जमेल तसे सर्वांना शिकवण्याचा प्रयत्न करत आहोत.  सर्व पर्यावरण संस्था, पर्यावरण ग्रुप व कार्यकर्ते यांना जिओ टॅगिंगच्या अनोख्या माध्यमाद्वारे जोडण्यासाठी आम्ही प्रयत्नशील आहोत . वृक्षारोपण हे जसे एकट्या दुकट्याचे काम नाही तर ती एक सामुहिक जबाबदारी आहे. त्याचप्रमाणे वृक्षांचे जिओ टॅगिंग हे सर्वांनी मिळुनच करायचे आहे. हा नवा उपक्रम सर्वांच्या सक्रिय सहभागाने सुरू करण्याचा आमचा मानस आहे.

सुरवातीला 
 

सुरवात : 
 
हा पहिला ब्लॉग म्हणजे आपल्या प्रत्येकासाठी एक नाविन्यपुर्ण प्रकल्पच आहे असे म्हंटल्यास ते वावगे ठरणार नाही. यापुढील ब्लॉग-पोस्ट हे या उपक्रमात सामिल होणाऱ्या तज्ञांच्या समितीद्वारे प्रकाशित करण्याचा विचार आहे. हे  ब्लॉग म्हणजे ट्युटोरिअल, काैशल्य विकास,सोशल मिशन यांचे एकत्रित रुप असतील.  आपल्या सगळ्यांना ते मार्गदर्शक ठरतील अशी आशा आहे.


FAQ :

जिओ टॅगिंग करणे कठिण आहे का ?

मुळीच नाही. व्हॉट्सअप किंव फेसबुकवर जितक्या सहजपणे तुम्ही मेसेज टाकता तितक्याच सहजपणे तुम्ही तुमच्या आसपासच्या वृक्षाची नोंदणी करू शकता. 


जोडणी :

1.  मोबाईल वापरून वृक्षांचे जिओ टॅगिंग करणे खरोखरच सोपे आहे हे दाखवणारी चित्रफित.
2.  जिओ टॅगिंग केलेल्या वृक्षांचे स्थान व त्यांची माहिती मॅपवरून किती सहज मिळते ते दाखवणारी चित्रफित.
3.  एखाद्या परिसरातील जिओ टॅगिंग केलेल्या वृक्षांची अद्ययावत यादी. ही यादी वेबसाईटवरून मुक्तपणे कोणालाही क्षणार्धात विनामुल्य मिळु शकते.
4.  हौशी निसर्ग प्रेमींना वृक्षांची ओळख मोबाईलच्या जिपिएस वरून कशी मिळु शकते ते दाखवणारा स्क्रिनशॉट.

   




