नमस्कार,

आपल्या पर्यावरण क्षेत्रातील कार्याची माहिती आतरजालावर ब्लॉग व इतर व्यासपीठांवर मिळाली. त्याबद्दल आम्ही सर्वप्रथम आपले अभिनंदन करतो व आपल्याला पुढील वाटचालीसाठी शुभेच्छा देतो.पर्यावरणावरच्या अनेक लेखांमधून झाडांचे जिओ टॅगिंग असा उल्लेख वाचला. अनेक पर्यावरणतज्ञांनी या लेखांमधून वृक्षांचे जिओ टॅगिंग करणे नितांत आवश्यक असल्याचे प्रतिपादन केले आहे. त्यामुळे जिओ टॅगिंगबद्दल उत्सुकता निर्माण झाली. इंटरनेटवर शोधले असता फारशी सुस्पष्ट माहिती मिळाली नाही.  जिओ टॅगिंग हे सामान्य माणसासाठी अवघड असल्याचे आमचे मत झाले.  अधिक शोध केल्यावर जिओ टॅगिंग म्हणजे झाडाचे लॅटिट्युड, लाँगिट्युड काढणे असे समजले.  पुढे आमच्या असे लक्षात आले की लेखात उल्लेख केलेल्या जिओ टॅगिंगच्या विशेष साधनांची खरे तर गरज नाही, मोबाईल मधे असलेल्या GPS चिपने हे काम होऊ शकते. जर Open Street Map (OSM) सारखी मॅपिंग टुल्स वापरली तर जिओ टॅगिंग मधे आवश्यक तेव्हढी अचूकता आणता येते.
हे लक्षात आल्यावर हरिओम नगर,ठाणे व आसपासच्या भागातील सर्व झाडांचा डेटाबेस बनविण्यासाठी आम्ही (मी व माझे मित्र प्रा. तय्यबअली सय्यद) एक प्रकल्प प्रायोगिक तत्वावर सुरु केला. ज्यात झाडांचे जिओ टॅगिंग करुन हा डेटा इंटरनेटवर ओपन स्ट्रीट मॅपमधे अपलोड करायचा असे ठरवले. ओपन स्ट्रीट मॅप हा मुक्तस्रोत प्रकल्प असल्यामुळे हा मॅप सर्वांना कुठल्याही जाचक अटीशिवाय अगदी मुक्तपणे वापरता येईल. ओपन स्ट्रीट मॅप एक जागतिक किर्तीचे मॅपिंग टुल आहे. पण फारच थोड्या लोकांना याबद्दल माहिती आहे. ओपन स्ट्रीट मॅपमधे वृक्षांचे मॅपिंग स्वयंसेवकांअभावी थोडे मागे पडले आहे. त्याला चालना द्यायची व पर्यावरण संवर्धनाला हातभार लावायचा असा विचार या प्रकल्पामागे आहे.
जिओ टॅगिंग साध्या स्मार्ट फोनवरुनच करुन बघितले व त्याचा उपयोग होत असल्याची खात्री केली. प्रक्रिया सोपी आहे असे आमच्या लक्षात आले. शाळकरी विद्यार्थी सुद्धा हे करू शकतील (खरं तर ते आपल्यापेक्षा जास्त चांगल्या रितीने करू शकतील). लॉकडाउन शिथील झाल्यावर विद्यार्थी या उपक्रमाचा नक्कीच आनंद घेऊ शकतील. लॉकडाउनमधेसुद्धा रिमोटली हे कौशल्य कोणालाही शिकता वा शिकवता येईल. सुरवातीच्या जिओ टॅगिंगच्या चाचण्यात तरी काही गंभीर दोष आढळुन आला नाही.  हा प्रकल्प मोठ्या प्रमाणात यशस्वीरित्या राबविल्यास वृक्षांचा समृध्द असा डेटाबेस तयार होऊ शकेल. आपल्या परिसरात कोणत्या जाती आढळतात व कोणत्या वृक्षांच्या लागवडीची आवश्यकता आहे हे शोधण्यात हा उपयुक्त ठरेल. झाडांची ओळख, मोजणी, वर्गवारी सुध्दा सहजतेने करता येईल. प्रत्येक वृक्षप्रेमी व्यक्तिला वृक्ष पाहताक्षणी त्या वृक्षाची संपुर्ण माहिती उपलब्ध होईल. आपल्याला हव्या त्या वृक्षाचा शोध आंतरजालावर घेऊन तो आपल्या परिसरात आहे का ते बघता येईल. जर असेल तर तो नक्की कुठे आहे ते समजेल. आपल्या आसपास नसेल  तर दुसऱ्या कोणत्या गावात, राज्यात आहे ते समजेल.  इतकेच काय तर संपुर्ण भारतात किंवा जगात कुठे आहे तेसुद्धा समजेल. या प्रकल्पाचे इतरही अनेक फायदे आहेत.   
पत्र लिहिण्यामागचे कारण असे की आम्हाला पर्यावरण क्षेत्राचा काहीच अनुभव नाही. आम्ही वापरलेली नोंदणी-पध्दत निर्दोष आहे की नाही हे तज्ञांनी तपासुन पाहणे आवश्यक आहे. झाडांची ओळख निश्चित करणे आमच्यासाठी अवघड काम आहे. हा प्रकल्प तज्ञांच्या समुहाने वा एखाद्या संस्थेने राबवल्यास त्याचे अधिक चांगले व अपेक्षित परिणाम नक्की दिसुन येतील. आम्हाला आशा आहे की आपण या कामात पुढाकार घ्याल. सुरवातीला आपण स्वत: काही मोजक्या तज्ञांच्या सहाय्याने या प्रकल्पाची चाचणी करु शकता. जर योग्य वाटले तर टप्प्या टप्प्याने अधिक तज्ञांना व पर्यावरणप्रेमींना यात सामील करता येईल. जोपर्यंत जिओ टॅगिंग हे समाजाभिमुख होत नाही, कम्युनिटी ऍक्टिव्हिटी होत नाही, तळागाळापर्यंत पोहोचत नाही, तोपर्यंत त्याचा फारसा उपयोग होणार नाही असे वाटते. 

या प्रकल्पाबद्दल कृपया आपले मत कळवावे. तसेच या प्रकल्पामधे मार्गदर्शक म्हणुन सामील होण्यात आपल्याला आवडेल का ते कळवावे म्हणजे पुढील चर्चा करता येईल.धन्यवाद.
मिलिंद ओक, प्रा. तय्यबअली सय्यद.

टीप : हा फक्त एक हाैशी उपक्रम आहे. यात कोणतेही व्यावसायिक हितसंबंध गुंतलेले नाहीत. गुगल मॅप ऐवजी ओपन स्ट्रीट मॅप वापरण्याचे कारण असे आहे की  गुगल मॅपच्या वापरावर काही मर्यादा आहेत (ज्या मर्यादा बहुतेक लोकांना माहित नाहीत). आपण गूगल पूर्णपणे टाळू शकत नाही हे खरे आहे परंतु निदान सामाजिक कार्यात व शिक्षण क्षेत्रात तरी शक्य तितका त्याचा वापर कमीत कमी करायला हवा. 


ref : 1.   https://en.wikipedia.org/wiki/OpenStreetMap
       2.   https://www.theguardian.com/technology/2014/jan/14/why-the-world-needs-openstreetmap
       3.    https://www.openstreetmap.org/user/jbelien/diary/44356
       4.    http://www.50northspatial.org/map-nature-openstreetmap-approaches-issues-key-tags/
       5.   

