🌿🌳 *स्थानिक झाडं – का व कुठे ?*

वनस्पती आणि प्राणी यांची उत्पत्ती एकमेकांबरोबरच घडली आहे. पृथ्वीवर अक्षांश – रेखांश, पाऊसमान – हवामान आणि खंडांची रचना यानुसार वनस्पती – प्राणी यांच्या नैसर्गिक सीमा आहेत. त्यांना मानवनिर्मित सीमा समजतच नाहीत. त्यांच्यातलं सामंजस्य, देवाण-घेवाण, सकारात्मक / नकारात्मक संवाद (predation, symbiosis) एका वेगळ्या पातळीवर घडत असतं. आता शास्त्रातील झालेल्या प्रगतीमुळे या संबंधांची काही प्रमाणात माहिती होऊ लागली आहे पण पूर्ण अभ्यास झालाच नाहीये किंवा सुरु आहे. 
वनस्पती ह्या अचल असतात, त्या पक्ष्यांप्रमाणे आपणहून हजारो किलोमीटर प्रवास करू शकत नाहीत तर त्यांना तसं करायला काहीतरी माध्यम लागतं, जे प्राणी, हवा, पाणी या मार्फत होऊ शकतं. जसे नारळ समुद्रातून वाहून एखाद्या बेटावर किंवा किनारपट्टीवर स्थिरावू, वाढू शकतो. पण त्यालाही मर्यादा आहेत. त्या मर्यादा आहेत म्हणूनच प्रत्येक भागाची स्वतःची अशी स्वतंत्र जैवविविधता आहे. अन्यथा सर्वत्र सारखीच झाडं आणि प्राणी दिसले असते. या स्वतंत्रपणाचा आपण आदर करायला हवा. नैसर्गिक – मानवनिर्मित असा भेद ओळखणं आणि करणं इथे आवश्यक आहे. निसर्गतः वनस्पती आणि त्यांचे सहजीवी प्राणी ठिकठिकाणी पसरणं, रुजणं, आणि एक भक्कम परिसंस्था म्हणून टिकणं, हे होतंच असतं आणि ते तसं झालेलं दिसतं. पण हे सगळं निसर्ग-नियमात होत असतं आणि ते तसं झालं तरच अधिक काळापर्यंत विनासायास टिकू शकतं. आणि एकदा का माणसांनी हे निसर्गचक्र समजून घेतलं की त्या पलीकडे जाऊन हौसेखातर काही करण्याची गरजच राहत नाही. 
प्रश्न निर्माण होतो जेव्हा माणूस या निसर्गसिमा ओळखत नाही, त्यांचा आदर करत नाही आणि केवळ डोळ्याला चांगलं दिसतंय म्हणून, उपयुक्त म्हणून किंवा अन्नासाठी निरनिराळ्या वनस्पतींची ने-आण करतो. त्यातल्या काही वनस्पती उत्तम रुजतात, वापरल्या जातात, काही उगवत नाहीत. पण मानवी अहंकार शांत बसू देत नाही. अट्टाहास करून काही झाडं रुजवली जातात. पण त्यांच्या सहकाऱ्यांचं काय? यातले काही त्यांचं परागीभवन करतात, काही सहकारी त्यांच्या अतिरिक्त वाढीवर ताबा ठेवतात, तर काही जीव त्यांच्या वाढीस हातभार लावतात आणि नैसर्गिक समतोल राखतात. ते वनस्पतींच्या बरोबरीनी इथे आणले जात नाहीत (ते आणले जावेत असं इथे निश्चितच सुचवायचं नाहीये). गुलमोहरही सुरुवातीला एखादाच आला, इथे रुजला, वाढला, भावला आणि मग एखाद्या बंगल्याच्या आवारात सीमित न राहता सर्वत्र पसरला. अगदी डोंगरावर, जंगलात, जंगलातल्या रस्त्याकडेला, नैसर्गिक प्रदेशात सुद्धा. आता तर तो इथल्या माणसाला परका वाटतच नाही पण म्हणून स्थानिक निसर्गाला / परीसंस्थेला तो पूरक आहे असे म्हणता येणार नाही. काही प्रकारचे पक्षी त्यावर येतही असतील, घरटी करत असतील. परंतु तरी देखील हे परदेशी वृक्ष माणसाने कृत्रिमरीत्या आणून रुजवणं कितपत योग्य याबाबत प्रश्नचिन्ह उभं राहतं. 
परदेशी वनस्पतींवर नियंत्रण ठेवणारे नैसर्गिक घटक इथं नसल्यानं त्यांचा अति-प्रसार होऊन नैसर्गिक प्रदेशात ढवळाढवळ  करणारी असंख्य उदाहरणं आहेत. टणटणी, जलपर्णी, सुबाभूळ, रानमारी, काळी पांगळ, कॉसमोस, इत्यादी आणि यावर नीट शास्त्रीय अभ्यासही झालेले आहेत. या वनस्पतींच्या अति प्रसारामुळे तिथल्या स्थानिक वनस्पतींना अटकाव होतो. विशेषतः छोट्या वर्षायु वनस्पती उगवून येऊ शकत नाहीत, ज्या पर्यावरणाच्या दृष्टीनी महत्वाच्या (pioneering in ecological succession) असतात. काही उदाहरणं तर ठळक आहेत. आपल्या मातीत निलगिरीच्या पानांचे विघटन करणारे सूक्ष्म जीव नसल्याने त्याचं विघटन होण्यास फार काळ लागतो, पाने कुजून त्यांचं अजैविक घटकात रुपांतर होण्याची प्रक्रियाच यामुळे प्रचंड मंदावते. या उलट त्याच्या मायदेश ऑस्ट्रेलियात त्यांची पाने कुजून मातीला पोषण पुरवतात. फुलपाखरांची अन्न झाडे (food plants, larval host plants) ठराविक असतात. ती त्या-त्या झाडांवरच अंडी घालतात.  या सगळ्या उदाहरणातून परदेशी झाडं कशी वाईट हे दाखविण्याचा उद्देश नसून, स्थानिक झाडांचं महत्व आणि त्यांचं स्थानिक सहचर्य दाखवण्याचा प्रयत्न आहे. यातूनच झाडांबरोबर प्राणीजीवन उत्क्रांत होत असतं हे दिसतं. प्राणी आणि वनस्पती यांच्यातील सहकार्य हे उत्क्रांतीचं वैशिष्ठ्य आहे. त्या नियमानुसार जनुकीय आराखडा ठरवला जातो. निसर्गात अनुकूलन व देवाण-घेवाण असते. त्यात माणसाने हस्तक्षेप करू नये, केला तर काय होतं हे आपण अनुभवत आहोत. काही परदेशी वनस्पतींचा “अजून पर्यंत तरी” अति-प्रसार झाला नाहीये ही चांगली गोष्ट आहे. पण भविष्यात काय घडू शकतं हे माहीत नसताना हा धोका पत्करणं कितपत श्रेयस्कर ? 
मुद्दा असा आहे की निसर्ग समजून घेणाऱ्यांनी, त्याचा अभ्यास करणाऱ्यांनी सर्वसामान्य नागरिकाला योग्य दिशा दिली पाहिजे. *वृक्ष लागवडीमध्ये विवेक असावा, अट्टाहास नसावा.* 
वनस्पती निवडीमधला हा विचार काय असावा ? : लागवडीचा उद्देश काय आहे ? लागवड कुठल्या प्रदेशात करायची आहे ?  लागवडीचे लाभार्थी कोण असणार  आहेत ? या सगळ्या बाबींवर सखोल विचार करून वनस्पती निवडायला हव्यात. 
हौस, शेती, उपयुक्तता, निसर्ग संवर्धन असे निरनिराळे उद्देश असू शकतात. त्यानुसार त्याचे लाभार्थी - हौशी शहरी माणसे, शेतकरी आणि निसर्गातले घटक असू शकतात. तसेच लागवडीतून पैसे मिळवणे, आनंद मिळवणे, निसर्गाला काही परत देणे असेही हेतू असू शकतील. या प्रत्येकाप्रमाणे कुठल्या वनस्पती निवडायच्या याचा विचार करणे उचित ठरेल. अशाप्रकारे नीट विचार केल्यास देशी-परदेशी हा वाद खरच ‘निरर्थक’ ठरेल. यात *प्रथम देशी-परदेशी-विदेशी-परकीय असे मानवकेंद्रित, देश-सीमा दाखवणारे शब्द टाळून स्थानिक आणि अ-स्थानिक शब्द अधिक योग्य ठरतील. कारण वनस्पती दर ठिकाणी हवामानानुसार बदलतात.* अगदी महाराष्ट्रात कोकणापासून ते विदर्भापर्यंत स्थानिक वनस्पती निरनिराळ्या आहेत. खरं तर नैसर्गिक सीमा ओळखणं आणि त्यांचा आदर करणं महत्वाचं आहे. स्थानिक आणि अ-स्थानिक वनस्पतींमधला फरक कसा ओळखायचा तर एखाद्या प्रदेशात ज्या वनस्पती मुलतः नाहीत त्या अ-स्थानिक. म्हणजेच त्या तिथल्या वर्षानुवर्ष राखलेल्या, जिथे माणूस सहजी पोहोचू शकत नाही अशा प्रदेशात आढळत नाहीत. तिथे आढळतात पूर्णतः स्थानिक, जंगली वनस्पती ज्या तिथल्या भूभागाबरोबर उत्क्रांत झालेल्या असतात, तिथल्या प्राण्यांशी (यात सस्तन प्राणी, पक्षी, कीटक, इत्यादी सर्व येतात) सहचर्य दाखवतात ! यामुळेच जे देशी आहे पण स्थानिक नाहीये ते लागवडीकरता योग्य ठरत नाही. उदाहरणार्थ - कोरड्या प्रदेशात वाढणारे नीम, बाभूळ सह्याद्रीच्या घाटमाथ्यावर वाढू शकत नाहीत किंवा कोकणात समुद्रकिनारी आढळणारी उंडीची झाडं कोरड्या प्रदेशात नैसर्गिकरित्या उगवलेली दिसत नाहीत.  
लागवडीकरताचा एक मानवकेंद्रीत  उद्देश म्हणजे हौस. आणि हौसेला मोल नाही. ना तिला नैसर्गिक सीमा ओळखता येतात. तर हौस या प्रकाराकरता कुठलाच नियम लागू पडणार नाही. फक्त आश्चर्य याचं वाटतं की  भारतासारख्या प्रचंड जैववैविध्य असलेल्या प्रदेशात, साधारण सतरा हजार फुलणाऱ्या वनस्पती आणि निदान पाचेकशे प्रकारचे विविध वृक्ष असताना त्यातल्या कुठल्याच जाती मोहवणाऱ्या, रुजवून बघूया असं म्हणायला लावणाऱ्या वाटल्या नाहीत ? सततच गुलमोहर, नीलमोहर, ब्राउनिआ, आम्हेरशिया, टबेबुईया यांचीच भुरळ का पडावी ? असो ! इथे या वनस्पतींचं सौंदर्य नाकारायचा उद्देश निश्चितच नाही. या झाडांकरता शहरातील व्यक्तिगत बागा, वनस्पती उद्यानं आणि वृक्षप्रेमी मंडळी आहेतच. आणि शहरात या वनस्पतींना अटकाव असावा असं म्हणणं असायचं काहीच कारण नाही. 
दुसरा उद्देश शेती. अनेकदा ‘देशी-विदेशी’ वादामध्ये आपण शेती उद्योगाला उगाचच ओढतो आणि विषय ताणतो. शेतीमधे काही पूर्वापार चालत आलेली वाणं आहेत ज्याला स्थानिक वाणं म्हणता येईल तर काही नव्यानं येत असलेल्या जाती आहेत. अगदी ज्वारी सुद्धा फार पूर्वी आफ्रिकेतून आली असं म्हणतात. तर एकीकडे भारतात भाताच्या २०००० जाती होत्या असं अभ्यासक सांगतात. या पूर्वीच्या वाणांचे जसे फायदे होते तसेच काही तोटेही. ते नवीन वाणांचे पण आहेतच. 
या दोन्ही उद्देशांमध्ये एक काळजीचा भाग नक्की आहे. हौस म्हणून आणलेली किंवा मोठ्या प्रमाणावर लागवडीसाठी वापरलेली वनस्पती नैसर्गिक प्रदेशामध्ये पसरून मोठं नुकसान करू शकतेच. जसं टणटणी ही  मोठ्या प्रमाणावर सागवानाची लागवड करताना ब्रिटिशांनी आणली आणि आता ती आपल्या संरक्षित प्रदेशांमध्ये इतकी फोफावली आहे की  तिथं तिच्यावर नियंत्रण ठेवण्यासाठी वनखात्याला अतिशय श्रम करावे लागतात. अशाप्रकारे चांगल्या उद्देशाने आणलेल्या एखाद्या अ-स्थानिक वनस्पतीचे ५०-१०० वर्षांनी काय विपरित परिणाम होतील असं नक्कीच सांगता येत नाही. मग कशाला विषाची परीक्षा? हेच जलपर्णीच्या बाबतीत घडलं. जलपर्णी भारतात नक्कीच आणली गेली, निसर्गतः आली नाही. तिच्या नैसर्गिक अधिवासात, तिच्या संख्येवर नियंत्रण ठेवणारे कॅपिबारा सारखे प्राणी आहेत. ते इथे नाहीत. आणि ती भारतासारख्या उष्णकटिबंधीय प्रदेशात आल्यावर आपल्याच नद्यांमाधली नैसर्गिक जीविधता नष्ट करण्यास अंशतः कारणीभूत ठरते आहे. नद्यात ओतले जाणारे प्रदूषित पाणी हे जरी मुख्य कारण असलं तरी त्या प्रदूषित पाण्यात जलपर्णी अधिकाधिक वाढून समस्या अधिक गंभीर होते आहे. अशा वनस्पतींचे दूरगामी परिणाम परीसंस्थेला आणि पर्यायाने माणसालाच भोगावे लागतात. पण हे लक्षात येईपर्यंत खूपच उशीर झालेला असतो. इ. ओ. विल्सन या जागतिक कीर्तीच्या शास्त्रज्ञाने त्याच्या लिखाणातून अशा प्रकारची जगभरातली अनेक उदाहरणं दिली आहेत. त्यावरून शिकण्यासारखे खूप काही आहे.     
शेतीमधेच लाकूड, रेशीम, फळं, इत्यादी करताची लागवड अंतर्भूत करता येईल. त्यामुळे चिकू, चिंच, काजू, द्राक्ष, हापूस आंबा, मोहोगनी, तुती, तेलाकरता निलगिरी यासारख्या, आणि नव्याने येऊ घातलेल्या ‘एनर्जी टॅबलेट’ – मंगोस्टीन यासारख्या वनस्पतींची लागवड, ज्याने शेतकऱ्यांचा लाभ आहे आणि माणसाला उपयुक्त वस्तू मिळणार आहेत त्यांना बाजूलाच ठेऊ. कारण ‘देशी-विदेशी’ ‘वादात’ शेती किंवा लागवड आणायची गरजच नाहीये. खाद्ययात्रेकरता हे अनेकानेक वर्ष चालूच आहे आणि चालू राहणारच आहे. इथे मुद्दा एवढाच येतो की यातल्या जातींचा नैसर्गिक अधिवासांवर परिणाम होऊ देऊ नये, त्याकरता सर्वांनीच सजग राहायला हवं. बरोबरीनी आपल्या देशी फळांचाही शेती / वनशेतीसाठी विचार व्हावा. उदा. करवंद, तोरण, अंबूळकी, टेम्भूर्णी इ.   
आता महत्वाचा मुद्दा येतो तो निसर्ग राखण्यासाठी, जंगल तयार करण्यासाठी किंवा हरीतीकरणासाठी करायच्या लागवडीचा. दुर्दैवाने ब्रिटीश सरकारने सुरु केलेलं वनखात्याचं धोरण, एकसुरी लागवड स्वातंत्र्योत्तर काळातही तसच राहिलं. त्यात निसर्ग संवर्धन या उद्देशाने योग्य ते बदल केले गेले नाहीत. काही दशकांपूर्वीच्या अयोग्य धोरणांमुळे अ-स्थानिक वृक्षांची लागवड सर्वदूर आणि नैसर्गिक प्रदेशात आतपर्यंत पोहोचली. अगदी सह्याद्रीच्या संवेदनशील भागांमध्येसुद्धा ऑस्ट्रेलियन बाभूळ हा वृक्ष आढळतो. हल्ली तर नव्याने होणाऱ्या फार्म हाऊस मधे तर कुठल्याही वनस्पती लावल्या जातात, ज्या सहजच नैसर्गिक प्रदेशात पसरून, बदल घडवू शकतात. अशाप्रकारे केलेली, झालेली किंवा पसरलेली झाडं काढणं हे वनसंवर्धनात नक्कीच महत्वाचं ठरेल. कोकणाच्या अनेक भागांमध्ये ऑस्ट्रेलियन बाभूळ इतकं वाढलंय की तिथली मुळची उपयुक्त ऐन, किंजळ ही  झाडं वाढूच शकत नाहीत. शेतीच्या बांधावर नत्राकरता ग्लीरीसीडीया लावणं समजू शकतो पण तेच ग्लीरीसीडीया टेकडीवर मोठया प्रमाणात वाढवून निसर्गातील अधिकाधिक घटकांना उपयोग होतो का?. 
थोडक्यात मुद्दा असा आहे की मानवाने स्वतःला खाण्यासाठी उपयोगी, व्यापाराकरता उपयोगी अशा परदेशी किंवा स्थानिक झाडांची शेती करून किंवा लागवड करून ती वापरायला काहीच हरकत नाही. कारण ती पुन्हापुन्हा तोडली जाऊन लावली जातात. त्याच काही एक व्यवस्थापन करता येतं. परंतु मोठ्या प्रमाणावर निसर्गाकरता लागवड करण्यासाठी (mass plantations), हरितीकरणासाठी, जंगल तयार करण्यासाठी मात्र परीसंस्थेच्या दृष्टीनी योग्य अशी स्थानिक झाडंच वापरायला हवीत. यातही शास्त्रीय दृष्टीनी बघता जमिनीची, मातीची  स्थिती बघून पर्यावरणीय पुनरुज्जीवनाच्या बरोबरीनी लागवड करायला हवी.
माणसाच्याच भवितव्याकरता आणि निरोगी जीवनाकरता निदान ३३ % भूभाग नैसर्गिक असावा असं म्हणलं जातं. या प्रदेशावर नक्कीच तिथल्या ‘स्थानिक’ झाडांची जोपासना व्हावी आणि कुठल्याही अ-स्थानिक उपद्रवी वनस्पती तिथे पसरू नयेत याची काळजी घ्यावी लागेल. हेच आपल्या नद्या-ओढे, डोंगर, शहरातले मोठे मोकळे प्रदेश, पडिक जमिनी या बाबतीतही खरे आहे. परकीय वनस्पतींमुळे पर्यावरणीय समतोल ढळतो आणि मुळच्या वनस्पतींचं नुकसान होतं हे अभ्यासाने सिद्ध झालेलं आहेच. त्यामुळे अशाठिकाणी लागवड करताना नक्कीच हवामान, पाऊस, भौगोलिक परिस्थिती यानुसार स्थानिक झाडांचीच निवड करायला हवी. आणि यात अशास्त्रीय काहीच नाही. तर याचा भक्कम पाया पारिस्थितीकी या शास्त्रात मांडलेला आहे. 
*असं नक्कीच वाटतंय की लागवडीच्या मुद्द्याकडे व्यक्तिगत आवड-निवड आणि मानवकेंद्री वृत्ती या पलीकडे जाऊन ‘निसर्गाला केंद्रस्थानी’ ठेऊन बघायला हवं आहे.* यात सर्वसमावेशक अशा दृष्टीकोनाची गरज आहे. माणसाला जर सुखी आनंदी समाधानी जगावं असं वाटत असेल तर आपल्या कुठल्याही एका कृत्याचा परिसरावर, तिथल्या निसर्गावर, विविध जीवांवर नजीकच्या काळात आणि भविष्यात काय परिणाम होऊ शकेल याची शहानिशा करणं गरजेच आहे. यात लागवड हा केवळ ‘एक’ मुद्दा आहे. त्याशिवाय आपण अति सूक्ष्म जीवाणूंपासून ते अतिविशाल हवामानाच्या चक्रांचा विचार करायला हवा आहे. निसर्गाची झालेली हानी भरून काढण्यासाठी आपल्या सीमित आकलनानुसार उपाययोजना करताना सर्वसमावेशक दृष्टीकोन अंगीकारायला हवा आहे. आज नैसर्गिक समतोल मोठ्या प्रमाणावर ढासळलेला असताना आणि सर्वत्र विकास, शेती, कृत्रिम लागवड, शहरवाढ, लोकसंख्या वाढ यांचा ताण वाढत असताना कुठल्याही वृक्ष लागवडीमधे स्थानिक झाडांना झुकतं माप देणं नक्कीच आवश्यक आहे. स्थानिक वृक्षांमधेही असंख्य पर्याय आणि उपयुक्तता असताना केवळ हौसेपोटी अ-स्थानिक वनस्पतींचा आग्रह उचित वाटत नाही. आधी स्थानिक पर्याय बघून, शोधून नंतरच अ-स्थानिक पर्यायांचा विचार व्हावा हीच योग्य दिशा ठरेल. जे आहे ते वाचवणं आणि शक्य तिथं निसर्ग फुलायला वाव ठेवणं, त्याला हातभार लावणं हे मानव जातीच्या दृष्टीनी निश्चितच फायद्याच ठरेल. 

मानसी करंदीकर व केतकी घाटे  
(पूर्वप्रकाशित : साप्ताहिक किरात, वेंगुर्ला)

🐾 Team oikos !
www.oikos.in
