<?xml version="1.0" encoding="UTF-8" standalone="no"?>
<svg
   xmlns:dc="http://purl.org/dc/elements/1.1/"
   xmlns:cc="http://creativecommons.org/ns#"
   xmlns:rdf="http://www.w3.org/1999/02/22-rdf-syntax-ns#"
   xmlns:svg="http://www.w3.org/2000/svg"
   xmlns="http://www.w3.org/2000/svg"
   xmlns:sodipodi="http://sodipodi.sourceforge.net/DTD/sodipodi-0.dtd"
   xmlns:inkscape="http://www.inkscape.org/namespaces/inkscape"
   width="420mm"
   height="297mm"
   viewBox="0 0 420 297"
   version="1.1"
   id="svg8"
   inkscape:version="1.0.2 (e86c870, 2021-01-15)"
   sodipodi:docname="Cardbord 12 - Enlarged Outer.svg"
   inkscape:export-filename="/home/milind/hg-12.png"
   inkscape:export-xdpi="160"
   inkscape:export-ydpi="160">
  <defs
     id="defs2" />
  <sodipodi:namedview
     id="base"
     pagecolor="#ffffff"
     bordercolor="#666666"
     borderopacity="1.0"
     inkscape:pageopacity="1"
     inkscape:pageshadow="2"
     inkscape:zoom="0.31723122"
     inkscape:cx="981.22565"
     inkscape:cy="468.37439"
     inkscape:document-units="mm"
     inkscape:current-layer="layer1"
     inkscape:document-rotation="0"
     showgrid="false"
     inkscape:snap-global="false"
     inkscape:window-width="1298"
     inkscape:window-height="704"
     inkscape:window-x="62"
     inkscape:window-y="27"
     inkscape:window-maximized="1" />
  <metadata
     id="metadata5">
    <rdf:RDF>
      <cc:Work
         rdf:about="">
        <dc:format>image/svg+xml</dc:format>
        <dc:type
           rdf:resource="http://purl.org/dc/dcmitype/StillImage" />
        <dc:title />
      </cc:Work>
    </rdf:RDF>
  </metadata>
  <g
     inkscape:label="Layer 1"
     inkscape:groupmode="layer"
     id="layer1">
    <path
       id="path952-2-5-3-6-2"
       style="fill:#ffffff;stroke:#1a1a1a;stroke-width:0.399999;stroke-miterlimit:4;stroke-dasharray:none"
       d="M 207.62179,139.12017 C 224.54909,94.004069 239.19653,51.596424 254.18073,31.497164 269.16491,11.39792 286.94078,18.130388 284.99532,43.15031 283.04993,68.1702 266.6904,109.90768 249.76111,155.02294 l -21.06336,-7.96812 z" />
    <path
       id="path952-2"
       style="fill:#ffffff;stroke:#1a1a1a;stroke-width:0.399999;stroke-miterlimit:4;stroke-dasharray:none"
       d="m 220.52915,115.54751 c 13.6086,-34.842353 25.42195,-67.606742 37.2469,-83.048284 11.82495,-15.441534 25.51157,-10.021893 23.72605,9.38131 -1.78548,19.403146 -14.9168,51.628675 -28.52694,86.470364 l -16.21796,-6.41463 z" />
    <path
       style="fill:#ffffff;fill-opacity:1;stroke:#1a1a1a;stroke-width:0.499999;stroke-miterlimit:4;stroke-dasharray:none;stroke-opacity:1"
       d="M 142.64902,160.18462 Z"
       id="path885" />
    <path
       id="path952-2-5-3-6"
       style="fill:#ffffff;stroke:#1a1a1a;stroke-width:0.399999;stroke-miterlimit:4;stroke-dasharray:none"
       d="M 181.49081,149.49454 C 170.4219,102.59598 158.96797,59.216675 160.21854,34.177857 161.46911,9.1390568 179.9824,4.8302547 192.30163,26.693876 204.62091,48.557425 214.27962,92.333674 225.3464,139.23266 l -21.93189,5.11353 z" />
    <path
       id="path952-2-3"
       style="fill:#ffffff;stroke:#1a1a1a;stroke-width:0.399999;stroke-miterlimit:4;stroke-dasharray:none"
       d="m 179.23793,123.52498 c -7.95902,-36.549117 -16.2625,-70.373858 -14.96507,-89.779718 1.29743,-19.405849 15.69544,-22.47068 24.95165,-5.324396 9.25622,17.146201 16.16382,51.251936 24.12119,87.801354 l -17.05684,3.63781 z" />
    <path
       id="path952-2-5-3-5"
       style="fill:#ffffff;stroke:#1a1a1a;stroke-width:0.399999;stroke-miterlimit:4;stroke-dasharray:none"
       d="M 159.12858,170.31327 C 127.67594,133.80673 97.504894,100.60034 87.065607,77.807192 76.626321,55.014058 91.065323,42.651906 112.08025,56.368845 c 21.01493,13.716858 49.7762,48.103485 81.22714,84.611375 l -17.10107,14.65297 z" />
    <path
       id="path952-2-6"
       style="fill:#ffffff;stroke:#1a1a1a;stroke-width:0.399999;stroke-miterlimit:4;stroke-dasharray:none"
       d="M 146.55343,149.67877 C 122.43052,121.09084 99.276817,95.072275 91.351196,77.311213 83.425583,59.550158 94.720363,50.109614 110.91886,60.939259 c 16.19847,10.829579 38.24961,37.749144 62.37119,66.338101 l -13.37727,11.19009 z" />
    <path
       id="path952-2-5-3-6-9"
       style="fill:#ffffff;stroke:#1a1a1a;stroke-width:0.399999;stroke-miterlimit:4;stroke-dasharray:none"
       d="m 250.99871,203.17884 c 33.93243,-34.21383 64.67517,-66.89165 86.5812,-79.08314 21.90601,-12.19147 35.3605,1.23552 23.33068,23.25971 -12.02974,22.02419 -44.05943,53.38895 -77.99335,87.6012 l -15.94666,-15.90157 z" />
    <path
       id="path952-2-7"
       style="fill:#ffffff;stroke:#1a1a1a;stroke-width:0.399999;stroke-miterlimit:4;stroke-dasharray:none"
       d="m 272.14553,188.2129 c 26.51853,-26.38089 50.55562,-51.58564 67.60872,-60.93776 17.0531,-9.35213 27.38605,1.13243 17.91795,18.16263 -9.46802,17.03015 -34.49328,41.20974 -61.01295,67.5894 l -12.24702,-12.41693 z" />
    <path
       id="path952-2-5-3"
       style="fill:#ffffff;stroke:#1a1a1a;stroke-width:0.399999;stroke-miterlimit:4;stroke-dasharray:none"
       d="M 177.95523,215.93634 C 131.83174,201.98573 88.559536,190.13359 67.52634,176.49133 46.493163,162.84909 52.052675,144.6722 77.146208,144.98271 c 25.093472,0.31045 67.808522,13.91472 113.931302,27.86738 l -6.57826,21.53794 z" />
    <path
       id="path952-2-5"
       style="fill:#ffffff;stroke:#1a1a1a;stroke-width:0.399999;stroke-miterlimit:4;stroke-dasharray:none"
       d="m 157.74421,204.50659 c -35.81224,-10.80127 -69.410637,-19.9778 -85.741706,-30.54033 -16.33106,-10.56251 -12.014421,-24.63598 7.469283,-24.39557 19.483635,0.24037 52.649423,10.77348 88.461133,21.57634 l -5.10765,16.67577 z" />
    <path
       style="fill:#ffffff;stroke:#1a1a1a;stroke-width:0.499999"
       d="m 146.01366,288.56027 c 0,0 7.88181,-77.51127 -29.80743,-91.74541 C 78.516982,182.58071 79.847421,183.19715 79.847421,183.19715"
       id="path1031" />
    <path
       style="fill:#ffffff;stroke:#1a1a1a;stroke-width:0.499999"
       d="m 290.41496,288.98172 c 0,0 6.94722,-66.12819 32.23919,-94.37782 25.29197,-28.24962 25.29197,-28.24962 25.29197,-28.24962"
       id="path1033" />
    <path
       style="fill:#ffffff;stroke:#1a1a1a;stroke-width:0.499999"
       d="m 279.6686,70.758514 c -33.53428,103.624096 3.4227,83.723226 56.85501,53.863736"
       id="path1037"
       sodipodi:nodetypes="cc" />
    <path
       style="fill:#ffffff;stroke:#1a1a1a;stroke-width:0.499999"
       d="M 199.80309,43.316508 C 223.05483,121.537 216.60525,97.911335 249.31483,38.69872"
       id="path1039"
       sodipodi:nodetypes="cc" />
    <path
       style="fill:#ffffff;stroke:#1a1a1a;stroke-width:0.499999"
       d="m 120.83577,62.797808 c 31.07718,23.463136 57.2048,65.951432 45.86834,29.087028 -2.14751,-6.983366 -4.15565,-27.149013 -6.54342,-53.734926"
       id="path1041"
       sodipodi:nodetypes="csc"
       inkscape:export-filename="/home/milind/path1041.png"
       inkscape:export-xdpi="160"
       inkscape:export-ydpi="160" />
    <path
       style="fill:#ffffff;stroke:#1a1a1a;stroke-width:0.499999"
       d="m 92.237297,146.27179 c 54.684273,12.72344 47.298863,-2.00468 19.708653,-31.82993"
       id="path1043"
       sodipodi:nodetypes="cc" />
    <path
       style="opacity:1;fill:none;stroke:#1a1a1a;stroke-width:0.5;stroke-miterlimit:4;stroke-dasharray:none"
       d="m 139.48822,288.69669 c 0.21378,-9.35672 0.13152,-17.67921 -0.21572,-25.10104 -1.6661,-35.61117 -9.43273,-50.48668 -19.87001,-59.37886 -21.90317,-8.94968 -74.026243,-17.69257 -71.722594,-50.19886 1.61961,-15.56444 29.031616,-17.76551 54.776024,-10.79713 l 24.1303,1.59999 C 92.804271,91.833395 62.018785,72.040613 82.592323,45.702847 107.92135,27.832721 157.39522,95.513394 163.24659,95.316208 160.49838,59.168443 139.50786,19.01591 170.51311,5.9633271 c 30.66642,0.7803534 32.86946,38.0038979 48.9774,77.3669309 28.79911,-64.216124 34.74422,-69.832378 57.5781,-69.611242 32.51415,8.658078 4.79779,59.201612 -2.55245,106.424854 -0.721,13.13841 -3.49865,16.9558 8.75728,20.71142 37.18852,-6.94463 50.46907,-40.16782 86.86845,-22.77712 16.51217,25.61617 -23.52588,56.29942 -47.10894,90.07567 -13.22143,18.93607 -22.63461,43.53036 -21.99935,80.74541"
       id="path855"
       sodipodi:nodetypes="csccccccccccccsc" />
  </g>
</svg>
