वृक्षांचे जिओ टॅगिंग - काळाची गरज (भाग २)
    
    --- मिलिंद ओक, प्रा. तय्यबअली सय्यद

प्रत्येक वृक्ष सांगत आहे स्वत:ची ओळख !

जिओ टॅगिंगचे अनेक उपयोग असले तरी आपल्या सर्वांनाच आवडणारा एक उपयोग आहे. तो असा की वृक्षाची ओळख निश्चित करण्यासाठी (Plant Identification) जिओ टॅगिंग सहज वापराता येते. वृक्षाची ओळख हा आपल्या सर्वांच्याच कुतूहलाचा विषय आहे. शहरी भागातील सर्वसामान्य व्यक्तीला वृक्षांची ओळख सांगणे वाटते तितके सोपे नाही. वृक्षांच्या नावाबद्दल आपल्याला कुतुहल असते, एखाद्या वृक्षाबद्दल अधिक माहिती आपल्याला हवी असते. आंतरजालावर तर हजारो वृक्षांची माहिती अगदी एका क्लिकवर उपलब्ध असते. पण प्रश्न असा असतो की आपण पाहिलेल्या वृक्षाचे तर नावच माहित नसते. नाव कळले नाही तर या प्रचंड माहितीचा काय बरं उपयोग ?  आंतरजालावरील वृक्षांचे हजारो फोटो (Images) पाहुन आपण पाहिलेल्या वृक्षाशी पडताळुन पहाणे फार कठीण असते. त्यात वेळ भरपुर वाया जातो व यश मिळण्याची शक्यताही कमी असते. गुगल लेन्स किंवा वृक्ष ओळखीची ॲप, गुगल इमेज सर्च ह्याचाही उपयोग होतो पण यामधे अगदी क्वचितच यश मिळते. अर्थातच हा काही भरवशाचा उपाय नाही.  आपण सर्वांनी या अडचणींचा सामना केलाच असेल.

वृक्षाचे नाव शोधण्याचा आणखी एक चांगला पर्याय म्हणजे खुद्द आपला हा ग्रुप किंवा याचसारखे इतर पर्यावरण संबंधी ग्रुप. ग्रुपवर वृक्षाचा फोटो टाकायचा आणि ग्रुपवरील तज्ञांना नाव सांगण्याची नम्र विनंती करायची. वृक्षतज्ञ या बाबतीत नेहमीच मदत करतात. पण होते असे की नवे सभासद ग्रुपवर येतात त्यांना जुन्या मेसेजेस बदद्ल माहिती नसते. मग त्याच त्याच वृक्षाचे फोटो ग्रुपवर टाकले जातात व नाव विचारले जाते. याचा थोडसा त्रास मग सगळ्यांनाच, विशेषत: वनस्पतीतज्ञ असलेल्या सभासदांना, होतो. पण नवख्या सभासदांना नाऊमेद न करता वनस्पतीतज्ञ न कंटाळता, प्रेमाने नेहमीच मदत करत असतात. त्यांचे आपण सर्व खुप आभारी आहोत. काही वेळेस वृक्ष वा वनस्पतीची ओळख निश्चित करणे तज्ञांनाही अवघड जाते. विशेषत: फळे, फुले, पाने, खोड यांना काही विशेष गुणधर्म नसतील तर फोटोवरून किंवा प्रत्यक्ष वृक्ष पाहिला तरी ओळख पटणे थोडे कठीणच असते. 

अधुन मधुन पर्यावरण संस्था, शिक्षण संस्था, किंवा काही तज्ञ नेचर टूरचे आयोजन करतात. मग हाैसेने नेचर टूरमधे सहभाग घेतला जातो. चालता चालता टुर मधील तज्ञ झाडांची ओळख, गुणधर्म, सांगत जातात, ते लक्षात ठेवण्याचा प्रयत्न मनापासुन केला जातो. पण थोड्या वेळातच नावांमधे गोंधळ उडायला सुरवात होते. मग डायरी किंवा नोंदवही मधे ती नावे लिहिली जातात. नावांची यादी तर तयार होते पण नावे आणि वृक्ष यांची काही केल्या सांगड लागत नाही. वृक्ष आपल्या बरोबर घेऊन तर जाता येत नाही. मग ओळख म्हणून काही जण पाने, फुले, फळे, बिया यांचे नुमे नेतात. पण हे नमुने सुद्धा कालांतराने खराब होतात. शेवटी डायरी हरवून जाते किंवा त्याचा उपयोग नाही म्हणुन कंटाळुन रद्दीत टाकली जाते. पर्यावरण हा विषय इथेच संपून जातो. पुन्हा काही काळाने नेचर टुरची वारी येते आणि नवे सभासद डायरी घेऊन तयार होतात ! हा प्रातिनिधीक अनुभव विशेषत: शहरी भागातला आहे. अर्थात याला अपवादही आहेत. काहीजण न कंटाळता हा अभ्यास नेटाने सुरू ठेवतात. शिवाय वृक्षारोपण, संवर्धन, यातही प्रत्यक्ष सहभाग घेतात.  आपल्या ग्रुपमधे असे अनेक पट्टीचे वृक्षमित्र आहेत.

शहरात काही ठिकाणी महापालिका आणि स्थानिक संस्था वैशिष्ट्यपूर्ण झाडांच्या माहितीच्या पाट्या (हरितफलक) लावतात, उद्देश हा की लोकांना वृक्षांची अचुक ओळख लगेचच व तज्ञांच्या मदतीशिवाय व्हावी. वृक्षांचे गुणधर्म, उपयोग कळावे, वृक्षांचे महत्व पटावे, वृक्षांचे व पर्यायाने पर्यावरणाचे संवर्धन व्हावे. जैवविविधता टिकावी. परंतु या पाट्या कालांतराने नष्ट होऊन जातात. काही समाजकंटक त्या तोडून टाकतात, शिवाय अशा पाट्यांना खर्चही खूप असतो त्यामुळे त्या पुन्हा पुन्हा लावणे शक्य होत नाही. मग वृक्ष-ओळख हा कायम उत्सुकतेचा, कुतुहलाचा विषय राहतो आणि ते कुतुहल कधीही शमविले जात नाही.

आता मुळ विषयाकडे जाऊया. जिओ टॅगिंग हा या सर्वांवर रामबाण उपाय आहे. जिओ टॅगिंगमुळे वृक्ष ओळखीची पुनरावृती काही प्रमाणात तरी कमी करता येईल. जिओ टॅगिंग हे वृक्षांची ओळख निश्चित करण्यासाठी फक्त नवशिक्यांनाच नव्हे  तर तज्ञांनाही मदतीचा हात देईल. कसा ते पाहू.

सध्याच्या प्रगत तंत्रज्ञानाच्या युगात वृक्षफलकाची, वृक्ष ओळख आणि नोंदी असलेल्या डायरीची वा पुस्तकांची गरज आहे का ?  अगदी दुर्मिळ (Iconic) वृक्षांच्या मोजक्या पाट्या असायला हव्यात . काही मोजक्या तज्ञांची उत्तम पुस्तके सुद्धा जवळ असायला हवीत.  या पुस्तकांमधुन टॅक्सॉनॉमी मधील मुलतत्वे नीट शिकता येतील, आत्मसात करता येतील. पण पुढील अभ्यासासाठी विकिपिडीया हेच एक सर्वसमावेशक पुस्तक किंवा तुमची डायरी आहे. फक्त वृक्षाचे शास्त्रिय नाव कळलं की ते विकिपिडीयात टाकायचं आणि मग तुम्हाला त्या वृक्षाची अगदी परिपुर्ण माहिती मिळते. 

पण त्या वृक्षाचं नावच माहित नसेल तर ?  आपल्या सर्वांची हीच तर मुख्य अडचण आहे नाही का ? 

यावर उपाय काय ?

अर्थात जिओ टॅग किंवा जिपिएस टॅग. वृक्षाचा जिओ टॅग बघायचा. कसा ? वृक्षापाशी उभे राहुन स्मार्ट फोन मधे तुमचं जिपिएस लोकेशन बघायचं. तिथे त्या लोकेशनवर तुम्हाला जिपिएस टॅग दिसेल. त्यावर वृक्षाचे स्थानिक नाव, शास्त्रिय नाव, इत्यादी संक्षिप्त माहिती दिसेल. मग काय विकिपिडीया आहेच की हाताशी.  एकदा शास्त्रिय नाव कळलं की विकिपिडीया व त्याबरोबरच इतर संकेत स्थळांवर सुध्दा त्या वृक्षाची भरपुर माहिती मिळते. 

जिओ टॅग (किंवा जिपिएस टॅग) म्हणजेच वृक्षाच्या नावाची अदृश्य पाटी आणि विकिपिडीया म्हणजे आपल्या सगळ्यांची सामायिक अशी वृक्षांच्या माहितीची समृध्द डायरी. वृक्षाची संक्षिप्त माहिती त्याच्या भाैगोलिक स्थानाशी (Geo-Location) जोडणे याला वृक्षाचे जिओ टॅगिंग करणे असे म्हणतात.

समजा एखाद्या वृक्षाला जिओ टॅगच नसेल तर टॅग कोणी द्यायचा ?

हाच तर लाखमोलाचा प्रश्न आहे. ही लेखमाला सूरु करण्याचे अगदी हेच प्रयोजन आहे. जिओ टॅगिंगचे प्रचंड काम बाकी आहे. भारतातील प्रत्येक राज्यात हजारो, लाखो वृक्षांचे जिओ टॅगिंग करायचे आहे. सुरवातीला निदान दुर्मीळ वृक्षांचे तरी जिओ टॅगिंग करायलाच हवे. मग ते कोणी करायचे ? उत्तर अगदी सोपे आहे. ज्या वृक्षाला जिपिएस टॅग नसेल त्याचा टॅग आपण स्वत:च टाकायचा. तुम्ही, आम्ही किंवा कोणीही ! त्या वृक्षाची ओळख माहित नसेल तर तज्ञांच्या मदतीने निश्चित करायची. हा ग्रुप आहेच आपल्या सर्वांच्या मदतीला. तुम्ही स्वत:च तज्ञ असाल तर तुम्हाला त्या वृक्षासंबधी माहिती असेलच, पण कदाचित नसली तरी तुम्ही इतर तज्ञांची मदत घ्यायची. या ग्रुपवर तर वृक्षांची ओळख विचारणाऱ्या पोस्ट अखंड सुरू असतात. पण ओळख पटल्यावर तुम्ही स्वस्थ का बसता ? अहो एकदा ओळख पटल्यावर जिओ टॅग टाकून तुमच्यानंतर त्या ठिकाणी येणाऱ्या अनेक वृक्षप्रेमींना तुम्ही मदत करणार नाही का ?  टॅगमधे नाव, शास्त्रिय नाव इ. संक्षिप्त  माहिती भरायची.  माहिती भरल्यावर तुमच्या मोबाईल वरून जिपिएस टॅग अपलोड करायचा. केवळ दोन ते पाच मिनिटात हे करता येते. (कृपया लेखमालेच्या मागील भागाला जोडलेली चित्रफित पहा).

कोणत्याही वृक्षाला जिपिएस टॅग दिला की काय होते तर त्या वृक्षाचे नाव आणि संक्षिप्त माहिती जी तुम्हाला असते ती एका क्षणात संपुर्ण जगाला मिळते !  थोडक्यात तुम्ही तुमची स्वत:ची वृक्षनोंदीची वही संपु्र्ण जगासमोर खुली करता. आपल्यापैकी प्रत्येक जण हे नक्कीच करेल. कारण ज्ञानदान करणे ही आपली सहज प्रवृत्ती असते. तुम्हाला एखाद्या दुर्मिळ वृक्षाची माहिती असेल तर तुम्ही किती उत्साहाने ती दुसऱ्याला सांगता किंवा मग पोस्ट किंवा ब्लॉग द्वारे ती समाज माध्यमांवर टाकता. जिओ टॅगिंग हे असेच आहे. तुम्हाला माहित असलेल्या प्रत्येक वृक्षाची ओळख त्याच्या स्थानासकट नेटकेपणाने उपलब्ध करून द्यायची. पण फक्त फेसबुक मित्रांना किंवा ग्रुपवरील सभासादांनाच नाही बरं का तर अगदी संपुर्ण जगाला आणि त्याच्या अचुक स्थानासकट ! ती सुद्धा फक्त दोन मिनिटात ! ही नोंद कोणी केली ते सुध्दा या टॅगबरोबर नोंदवले जाते त्यामुळे जगभराच्या तज्ञांशी तुम्ही अगदी नकळत जोडले जाता.   

मोठ्या प्रमाणात जिओ टॅगिंग केलं तर केवढा प्रचंड फरक पडेल पाहा. तुम्ही मोबाईल घेऊन वृक्षाच्या जवळ उभे रहायचे. जिओ टॅगिंगचे ॲप सुरू करायचे. मग तो वृक्षच तुम्हाला त्याची ओळख सांगेल ! प्रत्येक वृक्षप्रेमी व्यक्तिला वृक्ष पाहताक्षणीच त्या वृक्षाची संपुर्ण माहिती उपलब्ध होईल. अतिशय अदभुत आणि आनंददायी अनुभव आहे हा. काय म्हणता विश्वास बसत नाही ?  मग या पोस्टला जोडलेली चित्रफित पहा. आपल्यापैकी प्रत्येकाने हा अनुभव जरूर घेतला पाहिजे.  

जिओ टॅगिंगमुळे आपल्याला हव्या त्या वृक्षाचा शोध आंतरजालावर घेऊन तो आपल्या परिसरात आहे का तेही बघता येईल. असेल तर तो नक्की कुठे आहे ते समजेल. आपल्या आसपास नसेल तर दुसऱ्या कोणत्या गावात, राज्यात आहे ते समजेल.  इतकेच काय तर संपुर्ण भारतात किंवा जगात कुठे आहे ते सुध्दा समजेल ! आणखी काय हवे ? 

मग तुम्ही पाहिलेल्या, ओळख पटलेल्या, तुमच्या आवडीच्या किंवा तुमच्या प्रवासात दिसलेल्या वैशिष्ठ्यपुर्ण वृक्षाची ओळख तुम्ही फक्त फेसबुकवरील मोजक्या मित्रांना वा ग्रुपवरील सभासदांना करुन देणार की जिओ टॅगिंग द्वारे संपुर्ण जगाला करून देणार ? उत्तर तुम्ही द्यायचे आहे.

मात्र तुम्ही हे टॅगिंगचे काम केले नाहीत म्हणुन तुम्हाला कोणीही दोष देणार नाही. जगभर हे काम सरूच रहाणार आहे. जे लोक मनापासुन वृक्षारोपण करतात ते बाकीचे करत नाहीत म्हणुन थांबुन राहतात का ? ते वृक्षारोपण करतच रहातात. तसेच हे आहे. जिओ टॅगिंग सुरुच रहाणार आहे. आपण आपला खारीचा छोटा वाटा उचलायचा की नाही ते तुम्ही ठरवायचे आहे. हे काम अगदी आरामात करायचे आहे. घाई नाही की गडबड नाही. तुमच्या एकट्यावर ही जबाबदारी आहे असं मुळीच समजु नका. थोड्याशा प्रयत्नाने ही अगदी सहज आणि नैसर्गिक कृती होईल. जाता जाता तुम्ही एखाद्या वृध्द व्यक्तीला रस्ता ओलांडायला मदत करता किंवा जाता जाता रस्त्यात पडलेला कागदाचा बोळा कचराकुंडीत टाकता, अगदी तितक्याच सहजपणे तुम्ही दिवसभरात एखादा टॅग सहज टाकू शकाल आणि पर्यावरणाच्या जागतिक क्षितिजावर आपला इवलासा ठसा उमटवू शकाल.  कारण एकदा दिलेला टॅग चिरकाल टिकणार आहे. अनेक वृक्षप्रेमींना त्याचा फायदा होत रहाणार आहे.  

जिओ टॅगिंग हा काही वृक्षारोपणाला पर्याय नव्हे. पण वृक्षारोपणाला आणि वृक्ष संवर्धनाला ते पुरक आहे हे निश्चित. तर वृक्षारोपण प्रथम करायचेच आणि ते जोमाने सुरूच ठेवायचे आहे. पण आपण लावलेल्या किंवा पाहिलेल्या वृक्षाची जाता-जाता नोंदणी करून जायचं.  ही नोंदणी करण्यासाठी जिओ टॅगिंगचे अगदी सोपे कौशल्य शिकून घ्यायचे व वापरायचे. ज्या व्यक्ती किंवा संस्था मोठ्या प्रमाणावर वृक्षारोपण करत आहेत त्यांना तर जिओ टॅगिंग लाभदायक ठरणारच आहे पण त्याचबरोबर त्याचा लाभ पर्यावरण क्षेत्रात काम करणाऱ्या जगभरातील सर्वच कार्यकर्त्यांना मिळणार आहे.

गाव,खेड्यातील लोकांचे नाते थेट मातीशी जोडलेले असते. वृक्ष, झाडा-झुडपांचे अैाषधी उपयोग व इतर खुपच माैलिक माहिती त्यांना अगदी लहानपणापासुन असते. बहुतेक वृक्षांची  स्थानिक नावे त्यांना तोंडपाठ असतात. मात्र शास्त्रिय नावांची फारशी माहिती नसते.  गाव, शहर आणि खेड्यातील सर्व वृक्षप्रेमींना, कार्यकर्त्यांना, पर्यावरण संस्थांना एकत्र जोडणारा दुवा तयार करणे पर्यावरणासाठी अत्यंत आवश्यक आहे. गाव-खेड्यातील लोकांना शहरातील पर्यावरणप्रेमींशी जोडण्याचे काम जिओ टॅगिंग अगदी प्रभावीपणे करू शकेल. म्हणून वृक्षांचे जिओ टॅगिंग पर्यावरणाचे संवर्धन करणाऱ्या आपण सर्वांनी जरूर केले पाहिजे.  

पुढील पोस्टमधे आम्ही प्रत्यक्ष जिओ टॅगिंग शिकवण्याचा प्रयत्न करणार आहोत. पोस्ट वाचून तुम्ही स्वत:च शिकू शकाल. चला तर मंडळी तुमचा स्मार्ट फोन तयार ठेवा. आणि पुढील पोस्टची वाट पाहा. तोपर्यंत निरोप घेत आहोत. 

राम राम आणि खुदा हाफिज...



